{
	"name" : "Eyes9",
	"hd-morphs" : true,
	"head" : {
		"prefix" : "head_",
		"include" : ["head_"],
		"exclude" : [],
		"path" : "data/DAZ 3D/Genesis 9/Genesis 9 Eyes/Morphs/DAZ 3D/Head Asymmetry/"
	},
	"facs" : {
		"prefix" : "facs_",
		"include" : ["facs_ctrl_", "facs_bs_"],
		"exclude" : [],
		"path" : "data/DAZ 3D/Genesis 9/Genesis 9 Eyes/Morphs/Daz 3D/FACS/"
	},
	"facsdetails" : {
		"prefix" : "facsdetails_facs_",
		"include" : ["facsdetails_facs_bs_", "facsdetails_facs_bs_"],
		"exclude" : [],
		"path" : "data/DAZ 3D/Genesis 9/Genesis 9 Eyes/Morphs/Daz 3D/FACS Details/"
	},
	"facsexpr" : {
		"prefix" : ["facs_ctrl_"],
		"include" : ["facs_ctrl_"],
		"exclude" : [],
		"path" : "data/DAZ 3D/Genesis 9/Genesis 9 Eyes/Morphs/Daz 3D/FACSExpressions/"
	},
	"flexions" : {
		"prefix" : "body_",
		"include" : ["body_"],
		"exclude" : [],
		"path" : "data/DAZ 3D/Genesis 9/Genesis 9 Eyes/Morphs/DAZ 3D/Base Flexions/"
	},
	"anime" : {
		"prefix" : "baseanime_",
		"include" : ["baseanime_"],
		"exclude" : [],
		"path" : "data/DAZ 3D/Genesis 9 Eyes/Morphs/DAZ 3D/Base Anime/"
	}	
}	
		
