{
	"name" : "Genesis",
	"hd-morphs" : false,
	"units" : {
		"prefix" : "ctrl",
		"include" : "ctrlunits",
		"exclude" : [],
		"path" : "data/DAZ 3D/Genesis/Base/Morphs/DAZ 3D/Base/"
	},
	"expressions" : {
		"prefix" : "ctrl",
		"include" : ["ctrl"],
		"exclude" : "ctrlunits",
		"exclude2" : "ctrlbody",
		"exclude3" : ["ctrlvsm"],
		"path" : "data/DAZ 3D/Genesis/Base/Morphs/DAZ 3D/Base/"
	},
	"visemes" : {
		"prefix" : "ctrlvsm",
		"include" : ["ctrlvsm"],
		"exclude" : [],
		"path" : "data/DAZ 3D/Genesis/Base/Morphs/DAZ 3D/Base/"
	},
	"body" : {
		"prefix" : "ctrl",
		"include" : "ctrlbody",
		"exclude" : [],		
		"path" : "data/DAZ 3D/Genesis/Base/Morphs/DAZ 3D/Base/"
	}
}	
		
