{
    "daz_type" :  "genesis38",
    "meta_type" : "human",

    "skeleton" : {
        "spine" :        "hip",
        "spine.001" :    "abdomenLower",
        "spine.002" :    "abdomenUpper",
        "spine.003" :    "chestLower",
        "spine.004" :    "chestUpper",
        "spine.005" :    "neckLower",
        "spine.006" :    "neckUpper",
        "spine.007" :    "head",

        "thigh.L" :     "lThigh",
        "shin.L" :      "lShin",
        "foot.L" :      "lFoot",
        "toe.L" :       "lToe",

        "thigh.R" :     "rThigh",
        "shin.R" :      "rShin",
        "foot.R" :      "rFoot",
        "toe.R" :       "rToe",

        "shoulder.L" :      "lCollar",
        "upper_arm.L" :     "lShldr",
        "forearm.L" :       "lForearm",
        "hand.L" :          "lHand",

        "shoulder.R" :      "rCollar",
        "upper_arm.R" :     "rShldr",
        "forearm.R" :       "rForearm",
        "hand.R" :          "rHand",

        "thumb.01.L" :       "lThumb1",
        "thumb.02.L" :       "lThumb2",
        "thumb.03.L" :       "lThumb3",
        "f_index.01.L" :     "lIndex1",
        "f_index.02.L" :     "lIndex2",
        "f_index.03.L" :     "lIndex3",
        "f_middle.01.L" :    "lMid1",
        "f_middle.02.L" :    "lMid2",
        "f_middle.03.L" :    "lMid3",
        "f_ring.01.L" :      "lRing1",
        "f_ring.02.L" :      "lRing2",
        "f_ring.03.L" :      "lRing3",
        "f_pinky.01.L" :     "lPinky1",
        "f_pinky.02.L" :     "lPinky2",
        "f_pinky.03.L" :     "lPinky3",

        "thumb.01.R" :       "rThumb1",
        "thumb.02.R" :       "rThumb2",
        "thumb.03.R" :       "rThumb3",
        "f_index.01.R" :     "rIndex1",
        "f_index.02.R" :     "rIndex2",
        "f_index.03.R" :     "rIndex3",
        "f_middle.01.R" :    "rMid1",
        "f_middle.02.R" :    "rMid2",
        "f_middle.03.R" :    "rMid3",
        "f_ring.01.R" :      "rRing1",
        "f_ring.02.R" :      "rRing2",
        "f_ring.03.R" :      "rRing3",
        "f_pinky.01.R" :     "rPinky1",
        "f_pinky.02.R" :     "rPinky2",
        "f_pinky.03.R" :     "rPinky3",

        "palm.01.L" :       "lCarpal1",
        "palm.02.L" :       "lCarpal2",
        "palm.03.L" :       "lCarpal3",
        "palm.04.L" :       "lCarpal4",

        "palm.01.R" :       "rCarpal1",
        "palm.02.R" :       "rCarpal2",
        "palm.03.R" :       "rCarpal3",
        "palm.04.R" :       "rCarpal4"
    },

    "cuts" : {
        "spine.003" : 1
    },
    
    "cutbase" : {
        "spine" : ["spine", 1]
    },

    "parents": {
    	"head" : "neckUpper",
    	"neckUpper" : "neckLower",
        "neckLower" :   "chestUpper",
        "chestUpper" :  "chestLower",
        "chestLower" :  "abdomenUpper",
        "abdomenUpper" : "abdomenLower",
        "lForearmBend" : "lShldrBend",
        "lHand" : "lForearmBend",
        "lShin" : "lThighBend",
        "lToe" : "lFoot",
        "rForearmBend" : "rShldrBend",
        "rHand" : "rForearmBend",
        "rShin" : "rThighBend",
        "rToe" : "rFoot"
    },
    
    "extra_parents" : {
        "lPectoral" : "DEF-spine.004",
        "rPectoral" : "DEF-spine.004"
    },

    "resize": {
        "head" : 2.0
    },

    "deform_bones" : {
        "abdomenLower" : "DEF-spine.001",
        "abdomenUpper" : "DEF-spine.002",
        "chestLower" : "DEF-spine.003",
        "chestUpper" : "DEF-spine.004",
        "neckLower" : "DEF-spine.005",
        "neckUpper" : "DEF-spine.006",
        "ShldrBend" : "DEF-upper_arm.%s",
        "ForearmBend" : "DEF-forearm.%s",
        "ThighBend" : "DEF-thigh.%s",
        "ShldrTwist" : "DEF-upper_arm.%s.001",
        "ForearmTwist" : "DEF-forearm.%s.001",
        "ThighTwist" : "DEF-thigh.%s.001",
        "Shin" : "DEF-shin.%s"
    },

    "renames" : {
        "lShldrBend" : "lShldr",
        "lForearmBend" : "lForearm",
        "lThighBend" : "lThigh",
        "rShldrBend" : "rShldr",
        "rForearmBend" : "rForearm",
        "rThighBend" : "rThigh"
    },

    "fingers" : [
        ["Thumb", "thumb"],
        ["Index", "f_index"],
        ["Mid", "f_middle"],
        ["Ring", "f_ring"],
        ["Pinky", "f_pinky"]
    ],

    "limbs" : {
        "Shldr" : "upper_arm",
        "Forearm" : "forearm",
        "Thigh" : "thigh",
        "Shin" : "shin"
    },

    "mergers" : {
        "hip" : ["pelvis"],
        "lShldrBend" : ["lShldrTwist"],
        "lForearmBend" : ["lForearmTwist"],
        "lThighBend" : ["lThighTwist"],
        "rShldrBend" : ["rShldrTwist"],
        "rForearmBend" : ["rForearmTwist"],
        "rThighBend" : ["rThighTwist"],
        "lFoot" : ["lMetatarsals"],
        "rFoot" : ["rMetatarsals"]
    },
    
    "reuse" : [
    	"lShldrBend", "lForearmBend", "lThighBend",
    	"rShldrBend", "rForearmBend", "rThighBend"
    ],

    "custom_shape_fix" : {
        "head" : [4.0, 0]
    }
}
