﻿{
    "character" : "Genesis 8",
    "morphs" : {
    	"eCTRLCheekFlex" : {"eCTRLCheekFlex-Slack" : 1},
        "eCTRLCheekFlexL" : {"eCTRLCheekFlex-SlackL" : 1},
        "eCTRLCheekFlexR" : {"eCTRLCheekFlex-SlackR" : 1},
        "eCTRLCheekSlack" : {"eCTRLCheekFlex-Slack" : -1},
        "eCTRLCheekSlackL" : {"eCTRLCheekFlex-SlackL" : -1},
        "eCTRLCheekSlackR" : {"eCTRLCheekFlex-SlackR" : -1},
        "eCTRLCheeksBalloon" : {"eCTRLCheeksBalloon-SuckIn" : 1},
        "eCTRLCheeksBalloonL" : {"eCTRLCheeksBalloon-SuckInL" : 1},
        "eCTRLCheeksBalloonR" : {"eCTRLCheeksBalloon-SuckInR" : 1},
        "eCTRLCheeksSuckIn" : {"eCTRLCheeksBalloon-SuckIn" : -1},
        "eCTRLCheeksSuckInL" : {"eCTRLCheeksBalloon-SuckInL" : -1},
        "eCTRLCheeksSuckInR" : {"eCTRLCheeksBalloon-SuckInR" : -1},
        "eCTRLEyelidsUpperDownUp" : {"eCTRLEyelidsUpperUp-Down" : 1},
        "eCTRLEyelidsUpperDownUpL" : {"eCTRLEyelidsUpperUp-DownL" : 1},
        "eCTRLEyelidsUpperDownUpR" : {"eCTRLEyelidsUpperUp-DownR" : 1},
        "eCTRLEyelidsUpperDown" : {"eCTRLEyelidsUpperUp-Down" : -1},
        "eCTRLEyelidsUpperDownL" : {"eCTRLEyelidsUpperUp-DownL" : -1},
        "eCTRLEyelidsUpperDownR" : {"eCTRLEyelidsUpperUp-DownR" : -1},
        "eCTRLEyelidsUpperUp" : {"eCTRLEyelidsUpperUp-Down" : 1},
        "eCTRLEyelidsUpperUpL" : {"eCTRLEyelidsUpperUp-DownL" : 1},
        "eCTRLEyelidsUpperUpR" : {"eCTRLEyelidsUpperUp-DownR" : 1},
        "eCTRLEyesSquint" : {"eCTRLEyesSquint-Widen" : 1},
        "eCTRLEyesSquintL" : {"eCTRLEyesSquint-WidenL" : 1},
        "eCTRLEyesSquintR" : {"eCTRLEyesSquint-WidenR" : 1},
        "eCTRLEyesWiden" : {"eCTRLEyesSquint-WidenL" : -1},
        "eCTRLEyesWidenL" : {"eCTRLEyesSquint-WidenL" : -1},
        "eCTRLEyesWidenR" : {"eCTRLEyesSquint-WidenR" : -1},
        "eCTRLLipTopIn-Out" : {"eCTRLLipTopOut-In" : 1},
        "eCTRLLipTopIn-OutL" : {"eCTRLLipTopOut-InL" : 1},
        "eCTRLLipTopIn-OutR" : {"eCTRLLipTopOut-InR" : 1},
        "eCTRLLipBottomIn-Out" : {"eCTRLLipBottomOut-In" : 1},
        "eCTRLLipBottomIn-OutL" : {"eCTRLLipBottomOut-InL" : 1},
        "eCTRLLipBottomIn-OutR" : {"eCTRLLipBottomOut-InR" : 1},
        "eCTRLLipsPressed" : {"eCTRLLipsPucker-Pressed" : -1},
        "eCTRLLipsPucker" : {"eCTRLLipsPucker-Pressed" : 1},
        "eCTRLMouthBareTeeth" : {"eCTRLLipsClosed-BareTeeth" : -1},
        "eCTRLMouthCornerBack" : {"eCTRLMouthCornerForward-Back" : -1},
        "eCTRLMouthCornerBackL" : {"eCTRLMouthCornerForward-BackL" : -1},
        "eCTRLMouthCornerBackR" : {"eCTRLMouthCornerForward-BackR" : -1},
        "eCTRLMouthNarrow" : {"eCTRLMouthWide-Narrow" : -1},
        "eCTRLMouthNarrowL" : {"eCTRLMouthWide-NarrowL" : -1},
        "eCTRLMouthNarrowR" : {"eCTRLMouthWide-NarrowR" : -1},
        "eCTRLMouthOpenWide" : {"eCTRLMouthWide-Narrow" : 1},
        "eCTRLMouthOpenWideL" : {"eCTRLMouthWide-NarrowL" : 1},
        "eCTRLMouthOpenWideR" : {"eCTRLMouthWide-NarrowR" : 1},
        "eCTRLMouthOpenLipsClose" : {"eCTRLMouthOpenLipsClose" : 1},
        "eCTRLMouthWide" : {"eCTRLMouthWide-Narrow" : 1},
        "eCTRLMouthWideL" : {"eCTRLMouthWide-NarrowL" : 1},
        "eCTRLMouthWideR" : {"eCTRLMouthWide-NarrowR" : 1},
        "eCTRLNostrilsFlare" : {"eCTRLNostrilsFlex" : 1},
        "eCTRLTongue%20Curl" : {"CTRLTongueCurl" : 1}
    }
}
