{
	"character":	"Genesis 8 Male",
	"center" : [ 0, 103.5941, 1.915123 ],
	"pose":	{
		"hip": [
			[-1.4984, -0.0000, 0.0000],
			[0.0000, 0.0000, 0.0000],
			"YZX"
		],
		"abdomenLower": [
			[1.4743, -0.0000, 0.0000],
			[0.0000, 0.0000, 0.0000],
			"YZX"
		],
		"abdomenUpper": [
			[1.4341, -0.0000, 0.0000],
			[0.0000, 0.0000, 0.0000],
			"YZX"
		],
		"chestLower": [
			[1.6377, -0.0000, 0.0000],
			[0.0000, 0.0000, 0.0000],
			"YZX"
		],
		"lPectoral": [
			[0.2483, -0.4717, -2.8932],
			[-8.8443, 21.0983, -0.0075],
			"ZYX"
		],
		"chestUpper": [
			[1.6395, -0.0000, 0.0000],
			[0.0000, 0.0000, 0.0000],
			"YZX"
		],
		"rCollar": [
			[0.0986, -0.0903, 1.4828],
			[0.0537, -3.5104, -1.7524],
			"XYZ"
		],
		"rShldrBend": [
			[-1.1022, -0.5777, 2.4570],
			[1.2280, 1.1531, 48.6036],
			"XYZ"
		],
		"rShldrTwist": [
			[-1.0994, -0.5473, 2.4257],
			[1.2157, 0.7502, 48.7814],
			"XYZ"
		],
		"rForearmBend": [
			[-0.9959, -0.6274, 2.6544],
			[1.1764, 16.3929, 44.7665],
			"XZY"
		],
		"rForearmTwist": [
			[-0.9848, -0.6100, 2.6448],
			[1.1626, 16.3195, 44.6668],
			"XZY"
		],
		"rHand": [
			[-2.3624, -0.1003, -1.6064],
			[1.2051, 0.5643, 44.1159],
			"XYZ"
		],
		"rCarpal4": [
			[-2.2623, 0.0377, -1.7453],
			[0.6956, -10.3570, 50.3707],
			"XYZ"
		],
		"rPinky1": [
			[-2.2826, -0.0305, -1.6888],
			[2.0350, -6.3759, 49.2573],
			"XYZ"
		],
		"rPinky2": [
			[-2.2646, -0.0262, -1.6925],
			[-1.0832, -6.7184, 48.8010],
			"XYZ"
		],
		"rPinky3": [
			[-2.2360, -0.0004, -1.7140],
			[-2.9305, -6.7293, 49.0379],
			"XYZ"
		],
		"rCarpal2": [
			[-2.2798, -0.1840, -1.5678],
			[1.3923, 5.6910, 49.0506],
			"XYZ"
		],
		"rMid1": [
			[-2.2537, -0.1420, -1.6041],
			[1.8237, 3.6722, 47.7404],
			"XYZ"
		],
		"rMid2": [
			[-2.1750, -0.1544, -1.5938],
			[1.4739, 3.8700, 53.9462],
			"XYZ"
		],
		"rMid3": [
			[-2.2961, -0.0991, -1.6321],
			[1.2028, 0.2765, 47.0191],
			"XYZ"
		],
		"rCarpal1": [
			[-2.2907, -0.2895, -1.4548],
			[1.7190, 13.9782, 49.2991],
			"XYZ"
		],
		"rIndex1": [
			[-2.2538, -0.2109, -1.5246],
			[3.3621, 8.9813, 50.9436],
			"XYZ"
		],
		"rIndex2": [
			[-2.2260, -0.1634, -1.5637],
			[1.4630, 5.1643, 51.2220],
			"XYZ"
		],
		"rIndex3": [
			[-2.2009, -0.1700, -1.5585],
			[1.4590, 4.3108, 52.4839],
			"XYZ"
		],
		"rThumb1": [
			[-2.5795, 0.2923, -0.0833],
			[-15.3674, 53.3673, 65.1093],
			"XZY"
		],
		"rThumb2": [
			[-2.1863, 0.2928, -0.0837],
			[-20.6346, 31.9460, 70.0115],
			"XZY"
		],
		"rThumb3": [
			[-2.4241, 0.3262, -0.1233],
			[-27.9612, 43.3295, 64.3257],
			"XZY"
		],
		"rCarpal3": [
			[-2.2752, -0.0707, -1.6307],
			[1.1372, -1.4023, 49.2178],
			"XYZ"
		],
		"rRing1": [
			[-2.2617, -0.0533, -1.6456],
			[1.7018, -3.2072, 49.9608],
			"XYZ"
		],
		"rRing2": [
			[-2.2411, -0.0596, -1.6403],
			[3.5230, -2.4570, 50.2989],
			"XYZ"
		],
		"rRing3": [
			[-2.2497, -0.0712, -1.6311],
			[1.1156, -1.6757, 49.8313],
			"XYZ"
		],
		"lCollar": [
			[0.0986, 0.0903, -1.4828],
			[0.0537, 3.5104, 1.7524],
			"XYZ"
		],
		"lShldrBend": [
			[-1.1022, 0.5777, -2.4570],
			[1.2280, -1.1531, -48.6036],
			"XYZ"
		],
		"lShldrTwist": [
			[-1.0994, 0.5473, -2.4257],
			[1.2157, -0.7502, -48.7814],
			"XYZ"
		],
		"lForearmBend": [
			[-0.9959, 0.6274, -2.6544],
			[1.1764, -16.3929, -44.7665],
			"XZY"
		],
		"lForearmTwist": [
			[-0.9848, 0.6100, -2.6448],
			[1.1626, -16.3195, -44.6668],
			"XZY"
		],
		"lHand": [
			[-2.3624, 0.1003, 1.6064],
			[1.2051, -0.5643, -44.1159],
			"XYZ"
		],
		"lCarpal3": [
			[-2.2750, 0.0733, 1.6338],
			[1.1372, 1.4023, -49.2178],
			"XYZ"
		],
		"lRing1": [
			[-2.2616, 0.0558, 1.6486],
			[1.7018, 3.2072, -49.9608],
			"XYZ"
		],
		"lRing2": [
			[-2.2409, 0.0621, 1.6434],
			[3.5230, 2.4570, -50.2989],
			"XYZ"
		],
		"lRing3": [
			[-2.2495, 0.0737, 1.6342],
			[1.1156, 1.6757, -49.8313],
			"XYZ"
		],
		"lCarpal4": [
			[-2.2617, -0.0484, 1.7324],
			[0.6956, 10.3570, -50.3707],
			"XYZ"
		],
		"lPinky1": [
			[-2.2829, 0.0197, 1.6762],
			[2.0350, 6.3759, -49.2573],
			"XYZ"
		],
		"lPinky2": [
			[-2.2649, 0.0156, 1.6797],
			[-1.0832, 6.7184, -48.8010],
			"XYZ"
		],
		"lPinky3": [
			[-2.2359, -0.0099, 1.7009],
			[-2.9305, 6.7293, -49.0379],
			"XYZ"
		],
		"lCarpal2": [
			[-2.2820, 0.1734, 1.5553],
			[1.3923, -5.6910, -49.0506],
			"XYZ"
		],
		"lMid1": [
			[-2.2554, 0.1318, 1.5914],
			[1.8237, -3.6722, -47.7404],
			"XYZ"
		],
		"lMid2": [
			[-2.1770, 0.1452, 1.5803],
			[1.4739, -3.8700, -53.9462],
			"XYZ"
		],
		"lMid3": [
			[-2.2972, 0.0883, 1.6199],
			[1.2028, -0.2765, -47.0191],
			"XYZ"
		],
		"lCarpal1": [
			[-2.2941, 0.2791, 1.4424],
			[1.7190, -13.9782, -49.2991],
			"XYZ"
		],
		"lIndex1": [
			[-2.2564, 0.2010, 1.5122],
			[3.3621, -8.9813, -50.9436],
			"XYZ"
		],
		"lIndex2": [
			[-2.2280, 0.1538, 1.5511],
			[1.4630, -5.1643, -51.2220],
			"XYZ"
		],
		"lIndex3": [
			[-2.2030, 0.1608, 1.5457],
			[1.4590, -4.3108, -52.4839],
			"XYZ"
		],
		"lThumb1": [
			[-2.5795, -0.2923, 0.0833],
			[-15.3674, -53.3673, -65.1093],
			"XZY"
		],
		"lThumb2": [
			[-2.1863, -0.2928, 0.0837],
			[-20.6346, -31.9460, -70.0115],
			"XZY"
		],
		"lThumb3": [
			[-2.4241, -0.3262, 0.1233],
			[-27.9612, -43.3295, -64.3257],
			"XZY"
		],
		"neckLower": [
			[1.8858, -0.0000, 0.0000],
			[8.4922, 0.0000, 0.0000],
			"YZX"
		],
		"neckUpper": [
			[1.6667, -0.0000, 0.0000],
			[8.4922, 0.0000, 0.0000],
			"YZX"
		],
		"head": [
			[1.5963, -0.0000, 0.0000],
			[0.6971, 0.0000, 0.0000],
			"YZX"
		],
		"lEye": [
			[-0.0119, -1.2720, -3.1255],
			[0.0000, 0.0000, 180.0000],
			"ZXY"
		],
		"lowerJaw": [
			[-1.5708, 1.1915, 1.5708],
			[23.5497, 0.0000, 0.0000],
			"ZYX"
		],
		"lowerFaceRig": [
			[-2.7619, -0.0000, 0.0000],
			[23.5497, 0.0000, 0.0000],
			"ZYX"
		],
		"lLipLowerOuter": [
			[0.0031, 0.0909, -3.0734],
			[0.0000, 0.0000, 0.0000],
			"ZYX"
		],
		"lCheekLower": [
			[-0.0055, -1.3285, -3.1380],
			[0.0000, 0.0000, 0.0000],
			"ZYX"
		],
		"rCheekLower": [
			[-0.0055, 1.3285, 3.1380],
			[0.0000, 0.0000, 0.0000],
			"ZYX"
		],
		"lLipCorner": [
			[-0.0821, -0.5712, -2.8635],
			[0.0000, 0.0000, 0.0000],
			"ZYX"
		],
		"Chin": [
			[3.0292, -0.0000, 0.0000],
			[0.0000, 0.0000, 0.0000],
			"ZYX"
		],
		"rLipLowerInner": [
			[2.9027, -0.9231, 0.1193],
			[0.0000, 0.0000, 0.0000],
			"ZYX"
		],
		"LipLowerMiddle": [
			[3.0495, -0.0000, 0.0000],
			[0.0000, 0.0000, 0.0000],
			"ZYX"
		],
		"rLipCorner": [
			[-0.0821, 0.5712, 2.8635],
			[0.0000, 0.0000, 0.0000],
			"ZYX"
		],
		"LipBelow": [
			[3.1019, -0.0000, 0.0000],
			[0.0000, 0.0000, 0.0000],
			"ZYX"
		],
		"rNasolabialMouthCorner": [
			[-0.1795, 1.3262, 2.9122],
			[0.0000, 0.0000, 0.0000],
			"ZYX"
		],
		"rNasolabialLower": [
			[3.0797, -0.8462, 0.0279],
			[0.0000, 0.0000, 0.0000],
			"ZYX"
		],
		"lLipLowerInner": [
			[2.9027, 0.9231, -0.1193],
			[0.0000, 0.0000, 0.0000],
			"ZYX"
		],
		"lNasolabialLower": [
			[3.0797, 0.8462, -0.0279],
			[0.0000, 0.0000, 0.0000],
			"ZYX"
		],
		"rJawClench": [
			[-0.0003, -0.0225, -3.1190],
			[0.0000, 0.0000, 0.0000],
			"ZYX"
		],
		"BelowJaw": [
			[3.0318, -0.0000, 0.0000],
			[0.0000, 0.0000, 0.0000],
			"ZYX"
		],
		"rLipLowerOuter": [
			[0.0031, -0.0909, 3.0734],
			[0.0000, 0.0000, 0.0000],
			"ZYX"
		],
		"lNasolabialMouthCorner": [
			[-0.1795, -1.3262, -2.9122],
			[0.0000, 0.0000, 0.0000],
			"ZYX"
		],
		"lJawClench": [
			[-0.0003, 0.0225, 3.1190],
			[0.0000, 0.0000, 0.0000],
			"ZYX"
		],
		"lowerTeeth": [
			[-2.9677, -0.0000, 0.0000],
			[11.5557, 0.0000, 0.0000],
			"ZYX"
		],
		"tongue01": [
			[2.4206, -0.0000, 0.0000],
			[-41.1059, 0.0000, 0.0000],
			"ZYX"
		],
		"tongue02": [
			[2.9396, -0.0000, 0.0000],
			[-10.4809, 0.0000, 0.0000],
			"ZYX"
		],
		"tongue03": [
			[3.0784, -0.0000, 0.0000],
			[1.2494, 0.0000, 0.0000],
			"ZYX"
		],
		"tongue04": [
			[3.0246, -0.0000, 0.0000],
			[-6.8539, 0.0000, 0.0000],
			"ZYX"
		],
		"rEye": [
			[-0.0119, 1.2720, 3.1255],
			[0.0000, 0.0000, -180.0000],
			"ZXY"
		],
		"rEar": [
			[-0.0374, 0.0104, 0.5429],
			[-2.3058, -59.7186, 4.0154],
			"XYZ"
		],
		"upperTeeth": [
			[-3.1323, -0.0000, 0.0000],
			[1.0897, 0.0100, 0.0100],
			"ZYX"
		],
		"lEar": [
			[-0.0374, -0.0104, -0.5429],
			[-2.3058, 59.7186, -4.0154],
			"XYZ"
		],
		"upperFaceRig": [
			[1.5986, -0.0000, 0.0000],
			[0.6971, 0.0000, 0.0000],
			"YZX"
		],
		"lBrowOuter": [
			[-0.1056, -1.3324, -3.0074],
			[0.0000, 0.0000, 0.0000],
			"ZYX"
		],
		"lEyelidLowerOuter": [
			[-2.7514, -0.2740, -0.0545],
			[-20.7629, -2.8807, 180.0000],
			"ZXY"
		],
		"rBrowInner": [
			[-0.0495, 1.4695, 3.0868],
			[0.0000, 0.0000, 0.0000],
			"ZYX"
		],
		"lEyelidUpperInner": [
			[2.9143, -0.1681, 0.0192],
			[-13.0007, -1.3443, 0.1532],
			"ZXY"
		],
		"rEyelidLowerOuter": [
			[-2.7514, 0.2740, 0.0545],
			[-20.7629, 2.8807, -180.0000],
			"ZXY"
		],
		"lNasolabialMiddle": [
			[-3.1070, -0.9460, -0.0177],
			[0.0000, 0.0000, 0.0000],
			"ZYX"
		],
		"lBrowInner": [
			[-0.0495, -1.4695, -3.0868],
			[0.0000, 0.0000, 0.0000],
			"ZYX"
		],
		"Nose": [
			[-3.1346, -0.0000, 0.0000],
			[0.0000, 0.0000, 0.0000],
			"ZYX"
		],
		"lLipBelowNose": [
			[0.0786, 1.3324, -3.0417],
			[0.0000, 0.0000, 0.0000],
			"ZYX"
		],
		"rEyelidInner": [
			[0.0062, 0.0163, -2.4160],
			[-0.0000, -41.1796, -180.0000],
			"ZXY"
		],
		"lEyelidLowerInner": [
			[-2.7702, 0.2110, 0.0398],
			[-20.4073, 2.7175, 180.0000],
			"ZXY"
		],
		"LipUpperMiddle": [
			[3.1197, -0.0000, 0.0000],
			[0.0000, 0.0000, 0.0000],
			"ZYX"
		],
		"lEyelidOuter": [
			[-0.0035, -0.0057, -2.0459],
			[0.0000, -61.8668, 180.0000],
			"ZXY"
		],
		"rNasolabialUpper": [
			[-3.0930, 0.8774, 0.0228],
			[0.0000, 0.0000, 0.0000],
			"ZYX"
		],
		"rNasolabialMiddle": [
			[-3.1070, 0.9460, 0.0177],
			[0.0000, 0.0000, 0.0000],
			"ZYX"
		],
		"lEyelidLower": [
			[-2.7850, -0.0282, -0.0051],
			[-20.4587, -0.0000, 180.0000],
			"ZXY"
		],
		"rEyelidUpperOuter": [
			[2.9168, -0.2793, 0.0317],
			[-12.7520, -1.4573, 0.1629],
			"ZXY"
		],
		"rNostril": [
			[-3.0869, 0.5508, 0.0155],
			[0.0000, 0.0000, 0.0000],
			"ZYX"
		],
		"lLipUpperInner": [
			[-3.0619, -1.0403, -0.0456],
			[0.0000, -0.1876, -0.1023],
			"ZYX"
		],
		"rEyelidLowerInner": [
			[-2.7702, -0.2110, -0.0398],
			[-20.4073, -2.7175, -180.0000],
			"ZXY"
		],
		"rSquintInner": [
			[-0.0102, -1.4492, -3.1329],
			[0.0000, 0.0000, 0.0000],
			"ZYX"
		],
		"rLipUpperInner": [
			[-3.0619, 1.0403, 0.0456],
			[0.0000, 0.1876, 0.1023],
			"ZYX"
		],
		"lLipNasolabialCrease": [
			[3.1082, -0.5466, 0.0094],
			[0.0000, 0.0000, 0.0000],
			"ZYX"
		],
		"rEyelidUpperInner": [
			[2.9143, 0.1681, -0.0192],
			[-13.0007, 1.3443, -0.1532],
			"ZXY"
		],
		"lSquintInner": [
			[-0.0102, 1.4492, 3.1329],
			[0.0000, 0.0000, 0.0000],
			"ZYX"
		],
		"rLipUpperOuter": [
			[-0.0351, 1.2179, 3.0913],
			[0.0000, 0.0000, 0.0000],
			"ZYX"
		],
		"rEyelidOuter": [
			[-0.0035, 0.0057, 2.0459],
			[0.0000, 61.8668, -180.0000],
			"ZXY"
		],
		"rBrowOuter": [
			[-0.1056, 1.3324, 3.0074],
			[0.0000, 0.0000, 0.0000],
			"ZYX"
		],
		"rLipBelowNose": [
			[0.0786, -1.3324, 3.0417],
			[0.0000, 0.0000, 0.0000],
			"ZYX"
		],
		"rCheekUpper": [
			[-0.1111, 1.3438, 3.0020],
			[0.0000, 0.0000, 0.0000],
			"ZYX"
		],
		"rEyelidLower": [
			[-2.7850, 0.0282, 0.0051],
			[-20.4587, 0.0000, -180.0000],
			"ZXY"
		],
		"lNostril": [
			[-3.0869, -0.5508, -0.0155],
			[0.0000, 0.0000, 0.0000],
			"ZYX"
		],
		"MidNoseBridge": [
			[-3.1084, -0.0000, 0.0000],
			[0.0000, 0.0000, 0.0000],
			"ZYX"
		],
		"rEyelidUpper": [
			[2.9304, -0.0445, 0.0047],
			[-13.1144, 0.0000, 0.0000],
			"ZXY"
		],
		"lCheekUpper": [
			[-0.1111, -1.3438, -3.0020],
			[0.0000, 0.0000, 0.0000],
			"ZYX"
		],
		"lBrowMid": [
			[0.1222, 1.3700, -2.9922],
			[0.0000, 0.0000, 0.0000],
			"ZYX"
		],
		"lEyelidUpperOuter": [
			[2.9168, 0.2793, -0.0317],
			[-12.7520, 1.4573, -0.1629],
			"ZXY"
		],
		"rLipNasolabialCrease": [
			[3.1082, 0.5466, -0.0094],
			[0.0000, 0.0000, 0.0000],
			"ZYX"
		],
		"lNasolabialUpper": [
			[-3.0930, -0.8774, -0.0228],
			[0.0000, 0.0000, 0.0000],
			"ZYX"
		],
		"lEyelidUpper": [
			[2.9304, 0.0445, -0.0047],
			[-13.1144, 0.0000, 0.0000],
			"ZXY"
		],
		"lLipUpperOuter": [
			[-0.0351, -1.2179, -3.0913],
			[0.0000, 0.0000, 0.0000],
			"ZYX"
		],
		"lEyelidInner": [
			[0.0062, -0.0163, 2.4160],
			[-0.0000, 41.1796, 180.0000],
			"ZXY"
		],
		"lSquintOuter": [
			[0.0065, 0.1391, -3.0477],
			[0.0000, 0.0000, 0.0000],
			"ZYX"
		],
		"rSquintOuter": [
			[0.0065, -0.1391, 3.0477],
			[0.0000, 0.0000, 0.0000],
			"ZYX"
		],
		"rBrowMid": [
			[0.1222, -1.3700, 2.9922],
			[0.0000, 0.0000, 0.0000],
			"ZYX"
		],
		"CenterBrow": [
			[-3.1335, -0.0000, 0.0000],
			[0.0000, 0.0000, 0.0000],
			"ZYX"
		],
		"rPectoral": [
			[0.2483, 0.4717, 2.8932],
			[-8.8443, -21.0983, 0.0075],
			"ZYX"
		],
		"pelvis": [
			[-1.6027, -0.0000, 0.0000],
			[0.0000, 0.0000, 0.0000],
			"YZX"
		],
		"rThighBend": [
			[-1.5409, 0.1588, 0.0086],
			[1.1639, -4.8555, -7.9452],
			"YZX"
		],
		"rThighTwist": [
			[-1.5439, 0.1744, 0.0098],
			[1.1639, -4.8555, -7.9452],
			"YZX"
		],
		"rShin": [
			[-1.4920, 0.1403, 0.0136],
			[5.1504, -9.7297, -8.5415],
			"YZX"
		],
		"rFoot": [
			[-2.7118, 0.0735, -0.2459],
			[24.0281, -14.6089, -6.1122],
			"ZYX"
		],
		"rMetatarsals": [
			[-2.8083, 0.0815, -0.2756],
			[23.1186, -14.2317, -8.9853],
			"ZYX"
		],
		"rToe": [
			[-2.9609, 0.1068, -0.2979],
			[13.1651, -18.6637, -2.1727],
			"ZYX"
		],
		"rBigToe": [
			[-2.9664, 0.1363, -0.3245],
			[18.5685, -20.3166, -4.5537],
			"ZYX"
		],
		"rBigToe_2": [
			[-2.9106, 0.1312, -0.3360],
			[18.5685, -20.3166, -4.5537],
			"ZYX"
		],
		"rSmallToe3": [
			[-2.7514, 0.1029, -0.3057],
			[28.8943, -18.4031, -1.5731],
			"ZYX"
		],
		"rSmallToe3_2": [
			[-2.6250, 0.0884, -0.2585],
			[28.8943, -18.4031, -1.5731],
			"ZYX"
		],
		"rSmallToe1": [
			[-2.8489, 0.1085, -0.3174],
			[23.2526, -19.9590, -4.5163],
			"ZYX"
		],
		"rSmallToe1_2": [
			[-2.7064, 0.1095, -0.3107],
			[23.2526, -19.9590, -4.5163],
			"ZYX"
		],
		"rSmallToe2": [
			[-2.7753, 0.0882, -0.2840],
			[27.5183, -17.3808, -4.3527],
			"ZYX"
		],
		"rSmallToe2_2": [
			[-2.6263, 0.0987, -0.2785],
			[27.5183, -17.3808, -4.3527],
			"ZYX"
		],
		"rSmallToe4": [
			[-2.6978, 0.0675, -0.2298],
			[29.8349, -15.8771, 2.6483],
			"ZYX"
		],
		"rSmallToe4_2": [
			[-2.5743, 0.0804, -0.2305],
			[29.8349, -15.8771, 2.6483],
			"ZYX"
		],
		"lThighBend": [
			[-1.5409, -0.1588, -0.0086],
			[1.1639, 4.8555, 7.9452],
			"YZX"
		],
		"lThighTwist": [
			[-1.5439, -0.1744, -0.0098],
			[1.1639, 4.8555, 7.9452],
			"YZX"
		],
		"lShin": [
			[-1.4920, -0.1403, -0.0136],
			[5.1504, 9.7297, 8.5415],
			"YZX"
		],
		"lFoot": [
			[-2.7118, -0.0735, 0.2459],
			[24.0281, 14.6089, 6.1122],
			"ZYX"
		],
		"lMetatarsals": [
			[-2.8083, -0.0815, 0.2756],
			[23.1186, 14.2317, 8.9853],
			"ZYX"
		],
		"lToe": [
			[-2.9609, -0.1068, 0.2979],
			[13.1651, 18.6637, 2.1727],
			"ZYX"
		],
		"lSmallToe4": [
			[-2.6978, -0.0675, 0.2298],
			[29.8349, 15.8771, -2.6483],
			"ZYX"
		],
		"lSmallToe4_2": [
			[-2.5743, -0.0804, 0.2305],
			[29.8349, 15.8771, -2.6483],
			"ZYX"
		],
		"lBigToe": [
			[-2.9664, -0.1363, 0.3245],
			[18.5685, 20.3166, 4.5537],
			"ZYX"
		],
		"lBigToe_2": [
			[-2.9106, -0.1312, 0.3360],
			[18.5685, 20.3166, 4.5537],
			"ZYX"
		],
		"lSmallToe2": [
			[-2.7753, -0.0882, 0.2840],
			[27.5183, 17.3808, 4.3527],
			"ZYX"
		],
		"lSmallToe2_2": [
			[-2.6263, -0.0987, 0.2785],
			[27.5183, 17.3808, 4.3527],
			"ZYX"
		],
		"lSmallToe3": [
			[-2.7514, -0.1029, 0.3057],
			[28.8943, 18.4031, 1.5731],
			"ZYX"
		],
		"lSmallToe3_2": [
			[-2.6250, -0.0884, 0.2585],
			[28.8943, 18.4031, 1.5731],
			"ZYX"
		],
		"lSmallToe1": [
			[-2.8489, -0.1085, 0.3174],
			[23.2526, 19.9590, 4.5163],
			"ZYX"
		],
		"lSmallToe1_2": [
			[-2.7064, -0.1095, 0.3107],
			[23.2526, 19.9590, 4.5163],
			"ZYX"
		]
	}
}
