{
	"character":	"Genesis 3 Female",
	"center": [ 0, 105.1781, 1.824816 ],
	"pose":	{
		"hip": [
			[-1.4612, -0.0000, 0.0000],
			[0.0000, 0.0000, 0.0000],
			"YZX"
		],
		"abdomenLower": [
			[1.5788, -0.0000, 0.0000],
			[0.0000, 0.0000, 0.0000],
			"YZX"
		],
		"abdomenUpper": [
			[1.4783, -0.0000, 0.0000],
			[0.0000, 0.0000, 0.0000],
			"YZX"
		],
		"chestLower": [
			[1.5739, -0.0000, 0.0000],
			[0.0000, 0.0000, 0.0000],
			"YZX"
		],
		"lPectoral": [
			[0.2213, -0.7527, -2.9203],
			[-8.8443, 21.0983, -0.0075],
			"ZYX"
		],
		"chestUpper": [
			[1.5738, -0.0000, 0.0000],
			[0.0000, 0.0000, 0.0000],
			"YZX"
		],
		"rCollar": [
			[0.0303, -0.0285, 1.5114],
			[0.0537, -3.5104, -1.7524],
			"XYZ"
		],
		"rShldrBend": [
			[1.5754, -1.6362, 0.0600],
			[0.0528, 1.6837, 3.5920],
			"XYZ"
		],
		"rShldrTwist": [
			[1.5752, -1.6361, 0.0215],
			[0.0424, 1.2845, 3.7781],
			"XYZ"
		],
		"rForearmBend": [
			[1.5714, -1.5504, 0.2967],
			[-0.0854, 16.8401, -0.5768],
			"XZY"
		],
		"rForearmTwist": [
			[1.5713, -1.5511, 0.2870],
			[-0.0995, 16.7647, -0.6750],
			"XZY"
		],
		"rHand": [
			[-0.0151, -3.0511, 1.5895],
			[-0.0077, 1.0014, -0.8832],
			"XYZ"
		],
		"rCarpal4": [
			[0.0966, -3.0499, 1.3903],
			[-0.4793, -9.7881, 5.5937],
			"XYZ"
		],
		"rPinky1": [
			[0.0723, -3.0427, 1.4679],
			[0.8604, -5.8304, 4.3997],
			"XYZ"
		],
		"rPinky2": [
			[0.0692, -3.0423, 1.4742],
			[-2.2630, -6.1821, 3.9510],
			"XYZ"
		],
		"rPinky3": [
			[0.0737, -3.0450, 1.4363],
			[-4.1080, -6.1882, 4.1878],
			"XYZ"
		],
		"rCarpal2": [
			[-3.0727, -0.1111, -1.4695],
			[0.2148, 6.2298, 3.9458],
			"XYZ"
		],
		"rMid1": [
			[-3.0548, -0.1081, -1.5117],
			[0.6380, 4.1845, 2.6767],
			"XYZ"
		],
		"rMid2": [
			[-2.9862, -0.1084, -1.5079],
			[0.3502, 4.5071, 8.8816],
			"XYZ"
		],
		"rMid3": [
			[0.0355, -3.0416, 1.5802],
			[0.0137, 0.7746, 2.0257],
			"XYZ"
		],
		"rCarpal1": [
			[-3.0733, -0.1055, -1.3240],
			[0.5123, 14.5203, 4.0196],
			"XYZ"
		],
		"rIndex1": [
			[-3.0494, -0.0981, -1.4244],
			[2.1939, 9.5578, 5.7729],
			"XYZ"
		],
		"rIndex2": [
			[-3.0330, -0.0927, -1.4815],
			[0.3080, 5.7472, 6.1297],
			"XYZ"
		],
		"rIndex3": [
			[-3.0145, -0.0909, -1.4978],
			[0.3187, 4.9190, 7.4097],
			"XYZ"
		],
		"rThumb1": [
			[-2.7587, 1.0424, -0.2644],
			[-17.0352, 54.1986, 18.7813],
			"XZY"
		],
		"rThumb2": [
			[-2.3801, 1.0426, -0.2647],
			[-21.7060, 32.8645, 24.4548],
			"XZY"
		],
		"rThumb3": [
			[-2.6537, 1.0637, -0.3392],
			[-29.3368, 44.1507, 18.3922],
			"XZY"
		],
		"rCarpal3": [
			[0.0745, -3.0630, 1.5499],
			[-0.0319, -0.8586, 4.2584],
			"XYZ"
		],
		"rRing1": [
			[0.0822, -3.0652, 1.5212],
			[0.5387, -2.6481, 5.0377],
			"XYZ"
		],
		"rRing2": [
			[0.0939, -3.0644, 1.5305],
			[2.3638, -1.8912, 5.3604],
			"XYZ"
		],
		"rRing3": [
			[0.0859, -3.0631, 1.5445],
			[-0.0477, -1.1195, 4.8772],
			"XYZ"
		],
		"lCollar": [
			[0.0303, 0.0285, -1.5114],
			[0.0537, 3.5104, 1.7524],
			"XYZ"
		],
		"lShldrBend": [
			[1.5754, 1.6362, -0.0600],
			[0.0528, -1.6837, -3.5920],
			"XYZ"
		],
		"lShldrTwist": [
			[1.5752, 1.6361, -0.0215],
			[0.0424, -1.2845, -3.7781],
			"XYZ"
		],
		"lForearmBend": [
			[1.5714, 1.5504, -0.2967],
			[-0.0854, -16.8401, 0.5768],
			"XZY"
		],
		"lForearmTwist": [
			[1.5713, 1.5511, -0.2870],
			[-0.0995, -16.7647, 0.6750],
			"XZY"
		],
		"lHand": [
			[-0.0151, 3.0511, -1.5895],
			[-0.0077, -1.0014, 0.8832],
			"XYZ"
		],
		"lCarpal3": [
			[0.0746, 3.0506, -1.5490],
			[-0.0319, 0.8586, -4.2584],
			"XYZ"
		],
		"lRing1": [
			[0.0822, 3.0528, -1.5201],
			[0.5387, 2.6481, -5.0377],
			"XYZ"
		],
		"lRing2": [
			[0.0940, 3.0520, -1.5293],
			[2.3638, 1.8912, -5.3604],
			"XYZ"
		],
		"lRing3": [
			[0.0859, 3.0507, -1.5435],
			[-0.0477, 1.1195, -4.8772],
			"XYZ"
		],
		"lCarpal4": [
			[0.0965, 3.0647, -1.3917],
			[-0.4793, 9.7881, -5.5937],
			"XYZ"
		],
		"lPinky1": [
			[0.0722, 3.0575, -1.4690],
			[0.8604, 5.8304, -4.3997],
			"XYZ"
		],
		"lPinky2": [
			[0.0691, 3.0571, -1.4753],
			[-2.2630, 6.1821, -3.9510],
			"XYZ"
		],
		"lPinky3": [
			[0.0736, 3.0597, -1.4374],
			[-4.1080, 6.1882, -4.1878],
			"XYZ"
		],
		"lCarpal2": [
			[-3.0728, 0.0967, 1.4685],
			[0.2148, -6.2298, -3.9458],
			"XYZ"
		],
		"lMid1": [
			[-3.0550, 0.0938, 1.5105],
			[0.6380, -4.1845, -2.6767],
			"XYZ"
		],
		"lMid2": [
			[-2.9864, 0.0942, 1.5057],
			[0.3502, -4.5071, -8.8816],
			"XYZ"
		],
		"lMid3": [
			[0.0354, 3.0561, -1.5808],
			[0.0137, -0.7746, -2.0257],
			"XYZ"
		],
		"lCarpal1": [
			[-3.0734, 0.0914, 1.3230],
			[0.5123, -14.5203, -4.0196],
			"XYZ"
		],
		"lIndex1": [
			[-3.0495, 0.0841, 1.4231],
			[2.1939, -9.5578, -5.7729],
			"XYZ"
		],
		"lIndex2": [
			[-3.0331, 0.0787, 1.4800],
			[0.3080, -5.7472, -6.1297],
			"XYZ"
		],
		"lIndex3": [
			[-3.0147, 0.0770, 1.4960],
			[0.3187, -4.9190, -7.4097],
			"XYZ"
		],
		"lThumb1": [
			[-2.7587, -1.0424, 0.2644],
			[-17.0352, -54.1986, -18.7813],
			"XZY"
		],
		"lThumb2": [
			[-2.3801, -1.0426, 0.2647],
			[-21.7060, -32.8645, -24.4548],
			"XZY"
		],
		"lThumb3": [
			[-2.6537, -1.0637, 0.3392],
			[-29.3368, -44.1507, -18.3922],
			"XZY"
		],
		"neckLower": [
			[1.8728, -0.0000, 0.0000],
			[8.4922, 0.0000, 0.0000],
			"YZX"
		],
		"neckUpper": [
			[1.6659, -0.0000, 0.0000],
			[8.4922, 0.0000, 0.0000],
			"YZX"
		],
		"head": [
			[1.5899, -0.0000, 0.0000],
			[0.6971, 0.0000, 0.0000],
			"YZX"
		],
		"lEye": [
			[0.0001, 0.0000, 3.1415],
			[0.0000, 0.0000, 180.0000],
			"ZXY"
		],
		"lowerJaw": [
			[-1.5708, 1.0935, 1.5708],
			[23.5497, 0.0000, 0.0000],
			"ZYX"
		],
		"lowerFaceRig": [
			[-2.6642, -0.0000, 0.0000],
			[23.5497, 0.0000, 0.0000],
			"ZYX"
		],
		"lLipLowerOuter": [
			[2.1879, 0.1009, -0.0522],
			[-55.3984, 2.7253, -1.4310],
			"ZYX"
		],
		"lCheekLower": [
			[-3.0945, -0.0415, -0.0010],
			[0.0000, 0.0000, 0.0000],
			"ZYX"
		],
		"rCheekLower": [
			[-3.0945, 0.0415, 0.0010],
			[0.0000, 0.0000, 0.0000],
			"ZYX"
		],
		"lLipCorner": [
			[-0.0810, -0.7048, -2.9220],
			[0.0000, 0.0000, 0.0000],
			"ZYX"
		],
		"Chin": [
			[-2.7102, -0.0000, 0.0000],
			[24.7183, 0.0000, 0.0000],
			"ZYX"
		],
		"rLipLowerInner": [
			[2.1877, -0.0147, 0.0076],
			[-52.8902, 0.0000, 0.0000],
			"ZYX"
		],
		"LipLowerMiddle": [
			[2.2624, -0.0000, 0.0000],
			[-52.0138, 0.0000, 0.0000],
			"ZYX"
		],
		"rLipCorner": [
			[-0.0810, 0.7048, 2.9220],
			[0.0000, 0.0000, 0.0000],
			"ZYX"
		],
		"LipBelow": [
			[3.1383, -0.0000, 0.0000],
			[0.0000, 0.0000, 0.0000],
			"ZYX"
		],
		"rNasolabialMouthCorner": [
			[-3.0118, -1.4750, -0.1180],
			[0.0000, 0.0000, 0.0000],
			"ZYX"
		],
		"rNasolabialLower": [
			[3.1204, 0.3809, -0.0041],
			[0.0000, 0.0000, 0.0000],
			"ZYX"
		],
		"lLipLowerInner": [
			[2.1877, 0.0147, -0.0076],
			[-52.8902, 0.0000, 0.0000],
			"ZYX"
		],
		"lNasolabialLower": [
			[3.1204, -0.3809, 0.0041],
			[0.0000, 0.0000, 0.0000],
			"ZYX"
		],
		"rJawClench": [
			[-0.0295, -0.4232, -3.0046],
			[0.0000, 0.0000, 0.0000],
			"ZYX"
		],
		"BelowJaw": [
			[-3.1237, -0.0000, 0.0000],
			[0.0000, 0.0000, 0.0000],
			"ZYX"
		],
		"rLipLowerOuter": [
			[2.1879, -0.1009, 0.0522],
			[-55.3984, -2.7253, 1.4310],
			"ZYX"
		],
		"lNasolabialMouthCorner": [
			[-3.0118, 1.4750, 0.1180],
			[0.0000, 0.0000, 0.0000],
			"ZYX"
		],
		"lJawClench": [
			[-0.0295, 0.4232, 3.0046],
			[0.0000, 0.0000, 0.0000],
			"ZYX"
		],
		"lowerTeeth": [
			[-2.9399, -0.0000, 0.0000],
			[11.5557, 0.0000, 0.0000],
			"ZYX"
		],
		"tongue01": [
			[2.4242, -0.0000, 0.0000],
			[-41.1059, 0.0000, 0.0000],
			"ZYX"
		],
		"tongue02": [
			[2.9587, -0.0000, 0.0000],
			[-10.4809, 0.0000, 0.0000],
			"ZYX"
		],
		"tongue03": [
			[-3.1197, -0.0000, 0.0000],
			[1.2494, 0.0000, 0.0000],
			"ZYX"
		],
		"tongue04": [
			[3.0219, -0.0000, 0.0000],
			[-6.8539, 0.0000, 0.0000],
			"ZYX"
		],
		"rEye": [
			[0.0001, -0.0000, -3.1415],
			[0.0000, 0.0000, -180.0000],
			"ZXY"
		],
		"rEar": [
			[-0.0353, 0.0095, 0.5271],
			[-2.3058, -59.7186, 4.0154],
			"XYZ"
		],
		"upperTeeth": [
			[-3.1242, -0.0000, 0.0000],
			[1.0897, 0.0100, 0.0100],
			"ZYX"
		],
		"lEar": [
			[-0.0353, -0.0095, -0.5271],
			[-2.3058, 59.7186, -4.0154],
			"XYZ"
		],
		"upperFaceRig": [
			[1.5899, -0.0000, 0.0000],
			[0.6971, 0.0000, 0.0000],
			"YZX"
		],
		"lBrowOuter": [
			[-0.1032, 1.2691, 3.0014],
			[0.0000, 0.0000, 0.0000],
			"ZYX"
		],
		"lEyelidLowerOuter": [
			[-2.7700, -0.2612, -0.0494],
			[-20.7629, -2.8807, 180.0000],
			"ZXY"
		],
		"rBrowInner": [
			[0.0144, -0.8740, 3.1108],
			[0.0000, 0.0000, 0.0000],
			"ZYX"
		],
		"lEyelidUpperInner": [
			[2.9098, -0.2051, 0.0240],
			[-13.0007, -1.3443, 0.1532],
			"ZXY"
		],
		"rEyelidLowerOuter": [
			[-2.7700, 0.2612, 0.0494],
			[-20.7629, 2.8807, -180.0000],
			"ZXY"
		],
		"lNasolabialMiddle": [
			[-3.0145, 1.4751, 0.1155],
			[0.0000, 0.0000, 0.0000],
			"ZYX"
		],
		"lBrowInner": [
			[0.0144, 0.8740, -3.1108],
			[0.0000, 0.0000, 0.0000],
			"ZYX"
		],
		"Nose": [
			[-3.1301, -0.0000, 0.0000],
			[0.0000, 0.0000, 0.0000],
			"ZYX"
		],
		"lLipBelowNose": [
			[0.0004, 0.1551, -3.1359],
			[0.0000, 0.0000, 0.0000],
			"ZYX"
		],
		"rEyelidInner": [
			[-0.0000, -0.0000, -2.4195],
			[-0.0000, -41.1796, -180.0000],
			"ZXY"
		],
		"lEyelidLowerInner": [
			[-2.7750, 0.2402, 0.0447],
			[-20.4073, 2.7175, 180.0000],
			"ZXY"
		],
		"LipUpperMiddle": [
			[-2.0838, -0.0000, 0.0000],
			[61.2572, 0.0000, 0.0000],
			"ZYX"
		],
		"lEyelidOuter": [
			[-0.0000, -0.0000, -2.0539],
			[-0.0000, -61.8668, 180.0000],
			"ZXY"
		],
		"rNasolabialUpper": [
			[-3.0930, 0.4192, 0.0103],
			[0.0000, 0.0000, 0.0000],
			"ZYX"
		],
		"rNasolabialMiddle": [
			[-3.0145, -1.4751, -0.1155],
			[0.0000, 0.0000, 0.0000],
			"ZYX"
		],
		"lEyelidLower": [
			[-2.7819, -0.0000, -0.0000],
			[-20.4587, -0.0000, 180.0000],
			"ZXY"
		],
		"rEyelidUpperOuter": [
			[2.9132, -0.2266, 0.0261],
			[-12.7520, -1.4573, 0.1629],
			"ZXY"
		],
		"rNostril": [
			[3.1400, 0.5821, -0.0013],
			[0.0000, 0.0000, 0.0000],
			"ZYX"
		],
		"lLipUpperInner": [
			[-2.1129, 0.0064, 0.0036],
			[57.2113, -0.1876, -0.1023],
			"ZYX"
		],
		"rEyelidLowerInner": [
			[-2.7750, -0.2402, -0.0447],
			[-20.4073, -2.7175, -180.0000],
			"ZXY"
		],
		"rSquintInner": [
			[0.0305, 1.2286, -3.0984],
			[0.0000, 0.0000, 0.0000],
			"ZYX"
		],
		"rLipUpperInner": [
			[-2.1129, -0.0064, -0.0036],
			[57.2113, 0.1876, 0.1023],
			"ZYX"
		],
		"lLipNasolabialCrease": [
			[0.0004, 0.5219, 3.1405],
			[0.0000, 0.0000, 0.0000],
			"ZYX"
		],
		"rEyelidUpperInner": [
			[2.9098, 0.2051, -0.0240],
			[-13.0007, 1.3443, -0.1532],
			"ZXY"
		],
		"lSquintInner": [
			[0.0305, -1.2286, 3.0984],
			[0.0000, 0.0000, 0.0000],
			"ZYX"
		],
		"rLipUpperOuter": [
			[-2.1398, -0.0088, -0.0048],
			[58.5290, 0.0000, 0.0000],
			"ZYX"
		],
		"rEyelidOuter": [
			[-0.0000, 0.0000, 2.0539],
			[-0.0000, 61.8668, -180.0000],
			"ZXY"
		],
		"rBrowOuter": [
			[-0.1032, -1.2691, -3.0014],
			[0.0000, 0.0000, 0.0000],
			"ZYX"
		],
		"rLipBelowNose": [
			[0.0004, -0.1551, 3.1359],
			[0.0000, 0.0000, 0.0000],
			"ZYX"
		],
		"rCheekUpper": [
			[-3.1204, 0.4938, 0.0054],
			[0.0000, 0.0000, 0.0000],
			"ZYX"
		],
		"rEyelidLower": [
			[-2.7819, -0.0000, 0.0000],
			[-20.4587, 0.0000, -180.0000],
			"ZXY"
		],
		"lNostril": [
			[3.1400, -0.5821, 0.0013],
			[0.0000, 0.0000, 0.0000],
			"ZYX"
		],
		"MidNoseBridge": [
			[3.1272, -0.0000, 0.0000],
			[0.0000, 0.0000, 0.0000],
			"ZYX"
		],
		"rEyelidUpper": [
			[2.9221, -0.0000, 0.0000],
			[-13.1144, 0.0000, 0.0000],
			"ZXY"
		],
		"lCheekUpper": [
			[-3.1204, -0.4938, -0.0054],
			[0.0000, 0.0000, 0.0000],
			"ZYX"
		],
		"lBrowMid": [
			[3.1231, 0.6448, -0.0062],
			[0.0000, 0.0000, 0.0000],
			"ZYX"
		],
		"lEyelidUpperOuter": [
			[2.9132, 0.2266, -0.0261],
			[-12.7520, 1.4573, -0.1629],
			"ZXY"
		],
		"rLipNasolabialCrease": [
			[0.0004, -0.5219, -3.1405],
			[0.0000, 0.0000, 0.0000],
			"ZYX"
		],
		"lNasolabialUpper": [
			[-3.0930, -0.4192, -0.0103],
			[0.0000, 0.0000, 0.0000],
			"ZYX"
		],
		"lEyelidUpper": [
			[2.9221, -0.0000, 0.0000],
			[-13.1144, 0.0000, 0.0000],
			"ZXY"
		],
		"lLipUpperOuter": [
			[-2.1398, 0.0088, 0.0048],
			[58.5290, 0.0000, 0.0000],
			"ZYX"
		],
		"lEyelidInner": [
			[-0.0000, 0.0000, 2.4195],
			[-0.0000, 41.1796, 180.0000],
			"ZXY"
		],
		"lSquintOuter": [
			[3.1218, 1.3559, -0.0159],
			[0.0000, 0.0000, 0.0000],
			"ZYX"
		],
		"rSquintOuter": [
			[3.1218, -1.3559, 0.0159],
			[0.0000, 0.0000, 0.0000],
			"ZYX"
		],
		"rBrowMid": [
			[3.1231, -0.6448, 0.0062],
			[0.0000, 0.0000, 0.0000],
			"ZYX"
		],
		"CenterBrow": [
			[-3.1343, -0.0000, 0.0000],
			[0.0000, 0.0000, 0.0000],
			"ZYX"
		],
		"rPectoral": [
			[0.2213, 0.7527, 2.9203],
			[-8.8443, -21.0983, 0.0075],
			"ZYX"
		],
		"pelvis": [
			[-1.5541, -0.0000, 0.0000],
			[0.0000, 0.0000, 0.0000],
			"YZX"
		],
		"rThighBend": [
			[-1.5555, 0.0672, 0.0013],
			[0.6488, -4.9505, -1.9239],
			"YZX"
		],
		"rThighTwist": [
			[-1.5518, 0.0322, 0.0006],
			[0.6488, -4.9505, -1.9239],
			"YZX"
		],
		"rShin": [
			[-1.4899, 0.0369, 0.0030],
			[4.6306, -9.8298, -2.4760],
			"YZX"
		],
		"rFoot": [
			[-2.7429, 0.0645, -0.2319],
			[23.4947, -14.6870, -0.0000],
			"ZYX"
		],
		"rMetatarsals": [
			[-2.7429, 0.0645, -0.2319],
			[23.4947, -14.6870, -0.0000],
			"ZYX"
		],
		"rBigToe": [
			[-2.8486, 0.1080, -0.3168],
			[18.0160, -20.3804, 1.6157],
			"ZYX"
		],
		"rBigToe_2": [
			[-2.8501, 0.1081, -0.3169],
			[18.0160, -20.3804, 1.6157],
			"ZYX"
		],
		"rToe": [
			[-2.9424, 0.0676, -0.2510],
			[14.6286, -14.6450, -1.8899],
			"ZYX"
		],
		"rSmallToe4": [
			[-2.5981, 0.0497, -0.1618],
			[29.2922, -15.8757, 8.7740],
			"ZYX"
		],
		"rSmallToe4_2": [
			[-2.4731, 0.0547, -0.1486],
			[29.2922, -15.8757, 8.7740],
			"ZYX"
		],
		"rSmallToe3": [
			[-2.6265, 0.0861, -0.2542],
			[28.3456, -18.4400, 4.5776],
			"ZYX"
		],
		"rSmallToe3_2": [
			[-2.5227, 0.0902, -0.2388],
			[28.3456, -18.4400, 4.5776],
			"ZYX"
		],
		"rSmallToe1": [
			[-2.7560, 0.0971, -0.2969],
			[22.7014, -20.0225, 1.6494],
			"ZYX"
		],
		"rSmallToe1_2": [
			[-2.6691, 0.0983, -0.2861],
			[22.7014, -20.0225, 1.6494],
			"ZYX"
		],
		"rSmallToe2": [
			[-2.6867, 0.0776, -0.2494],
			[26.9752, -17.4430, 1.7871],
			"ZYX"
		],
		"rSmallToe2_2": [
			[-2.5996, 0.0813, -0.2384],
			[26.9751, -17.4430, 1.7871],
			"ZYX"
		],
		"rHeel": [
			[-0.7092, -0.0737, -0.1985],
			[-44.8571, -10.6727, 0.0000],
			"ZYX"
		],
		"lThighBend": [
			[-1.5555, -0.0672, -0.0013],
			[0.6488, 4.9505, 1.9239],
			"YZX"
		],
		"lThighTwist": [
			[-1.5518, -0.0322, -0.0006],
			[0.6488, 4.9505, 1.9239],
			"YZX"
		],
		"lShin": [
			[-1.4899, -0.0369, -0.0030],
			[4.6306, 9.8298, 2.4760],
			"YZX"
		],
		"lFoot": [
			[-2.7429, -0.0645, 0.2319],
			[23.4947, 14.6870, 0.0000],
			"ZYX"
		],
		"lMetatarsals": [
			[-2.7429, -0.0645, 0.2319],
			[23.4947, 14.6870, 0.0000],
			"ZYX"
		],
		"lBigToe": [
			[-2.8486, -0.1080, 0.3168],
			[18.0160, 20.3804, -1.6157],
			"ZYX"
		],
		"lBigToe_2": [
			[-2.8501, -0.1081, 0.3169],
			[18.0160, 20.3804, -1.6157],
			"ZYX"
		],
		"lToe": [
			[-2.9424, -0.0676, 0.2510],
			[14.6286, 14.6450, 1.8899],
			"ZYX"
		],
		"lSmallToe1": [
			[-2.7560, -0.0971, 0.2969],
			[22.7014, 20.0225, -1.6494],
			"ZYX"
		],
		"lSmallToe1_2": [
			[-2.6691, -0.0983, 0.2861],
			[22.7014, 20.0225, -1.6494],
			"ZYX"
		],
		"lSmallToe4": [
			[-2.5981, -0.0497, 0.1618],
			[29.2922, 15.8757, -8.7740],
			"ZYX"
		],
		"lSmallToe4_2": [
			[-2.4731, -0.0547, 0.1486],
			[29.2922, 15.8757, -8.7740],
			"ZYX"
		],
		"lSmallToe2": [
			[-2.6867, -0.0776, 0.2494],
			[26.9752, 17.4430, -1.7871],
			"ZYX"
		],
		"lSmallToe2_2": [
			[-2.5996, -0.0813, 0.2384],
			[26.9751, 17.4430, -1.7871],
			"ZYX"
		],
		"lSmallToe3": [
			[-2.6265, -0.0861, 0.2542],
			[28.3456, 18.4400, -4.5776],
			"ZYX"
		],
		"lSmallToe3_2": [
			[-2.5227, -0.0902, 0.2388],
			[28.3456, 18.4400, -4.5776],
			"ZYX"
		],
		"lHeel": [
			[-0.7092, 0.0737, 0.1985],
			[-44.8571, 10.6727, -0.0000],
			"ZYX"
		]
	}
}
