{
    "name": "Facecap",
    "fingerprint" : "EyeBlink_L",
    "facs": {
        "BrowInnerUp" : ["BrowInnerUp", 1],
        "BrowDown_L" : ["BrowDown_L", 1],
        "BrowDown_R" : ["BrowDown_R", 1],
        "BrowDownLeft" : ["BrowDown_L", 1],
        "BrowDownRight" : ["BrowDown_R", 1],
        "BrowOuterUp_L" : ["BrowOuterUp_L", 1],
        "BrowOuterUp_R" : ["BrowOuterUp_R", 1],
        "BrowOuterUpLeft" : ["BrowOuterUp_L", 1],
        "BrowOuterUpRight" : ["BrowOuterUp_R", 1],
        "EyeLookUp_L" : ["EyeLookUp_L", 1],
        "EyeLookUp_R" : ["EyeLookUp_R", 1],
        "EyeLookUpLeft" : ["EyeLookUp_L", 1],
        "EyeLookUpRight" : ["EyeLookUp_R", 1],
        "EyeLookDown_L" : ["EyeLookDown_L", 1],
        "EyeLookDown_R" : ["EyeLookDown_R", 1],
        "EyeLookDownLeft" : ["EyeLookDown_L", 1],
        "EyeLookDownRight" : ["EyeLookDown_R", 1],
        "EyeLookIn_L" : ["EyeLookDown_L", 1],
        "EyeLookIn_R" : ["EyeLookDown_R", 1],
        "EyeLookInLeft" : ["EyeLookDown_L", 1],
        "EyeLookInRight" : ["EyeLookDown_R", 1],
        "EyeLookOut_L" : ["EyeLookOut_L", 1],
        "EyeLookOut_R" : ["EyeLookOut_R", 1],
        "EyeLookOutLeft" : ["EyeLookOut_L", 1],
        "EyeLookOutRight" : ["EyeLookOut_R", 1],
        "EyeBlink_L" : ["EyeBlink_L", 1],
        "EyeBlink_R" : ["EyeBlink_R", 1],
        "EyeBlinkLeft" : ["EyeBlink_L", 1],
        "EyeBlinkRight" : ["EyeBlink_R", 1],
        "EyeSquint_L" : ["EyeSquint_L", 1],
        "EyeSquint_R" : ["EyeSquint_R", 1],
        "EyeSquintLeft" : ["EyeSquint_L", 1],
        "EyeSquintRight" : ["EyeSquint_R", 1],
        "EyeWide_L" : ["EyeWide_L", 1],
        "EyeWide_R" : ["EyeWide_R", 1],
        "EyeWideLeft" : ["EyeWide_L", 1],
        "EyeWideRight" : ["EyeWide_R", 1],

        "CheekPuff" : ["CheekPuff", 1],
        "CheekSquint_L" : ["CheekSquint_L", 1],
        "CheekSquint_R" : ["CheekSquint_R", 1],
        "CheekSquintLeft" : ["CheekSquint_L", 1],
        "CheekSquintRight" : ["CheekSquint_R", 1],
        "NoseSneer_L" : ["NoseSneer_L", 1],
        "NoseSneer_R" : ["NoseSneer_R", 1],
        "NoseSneerLeft" : ["NoseSneer_L", 1],
        "NoseSneerRight" : ["NoseSneer_R", 1],
        "JawOpen" : ["JawOpen", 1],
        "JawForward" : ["JawForward", 1],
        "JawLeft" : ["JawLeft", 1],
        "JawRight" : ["JawRight", 1],

        "MouthFunnel" : ["MouthFunnel", 1],
        "MouthPucker" : ["MouthPucker", 1],
        "MouthLeft" : ["MouthLeft", 1],
        "MouthRight" : ["MouthRight", 1],
        "MouthRollUpper" : ["MouthRollUpper", 1],
        "MouthRollLower" : ["MouthRollLower", 1],
        "MouthShrugUpper" : ["MouthShrugUpper", 1],
        "MouthShrugLower" : ["MouthShrugLower", 1],
        "MouthClose" : ["MouthClose", 1],
        "MouthSmile_L" : ["MouthSmile_L", 1],
        "MouthSmile_R" : ["MouthSmile_R", 1],
        "MouthSmileLeft" : ["MouthSmile_L", 1],
        "MouthSmileRight" : ["MouthSmile_R", 1],
        "MouthFrown_L" : ["MouthFrown_L", 1],
        "MouthFrown_R" : ["MouthFrown_R", 1],
        "MouthFrownLeft" : ["MouthFrown_L", 1],
        "MouthFrownRight" : ["MouthFrown_R", 1],
        "MouthDimple_L" : ["MouthDimple_L", 1],
        "MouthDimple_R" : ["MouthDimple_R", 1],
        "MouthDimpleLeft" : ["MouthDimple_L", 1],
        "MouthDimpleRight" : ["MouthDimple_R", 1],
        "MouthUpperUp_L" : ["MouthUpperUp_L", 1],
        "MouthUpperUp_R" : ["MouthUpperUp_R", 1],
        "MouthUpperUpLeft" : ["MouthUpperUp_L", 1],
        "MouthUpperUpRight" : ["MouthUpperUp_R", 1],
        "MouthLowerDown_L" : ["MouthLowerDown_L", 1],
        "MouthLowerDown_R" : ["MouthLowerDown_R", 1],
        "MouthLowerDownLeft" : ["MouthLowerDown_L", 1],
        "MouthLowerDownRight" : ["MouthLowerDown_R", 1],
        "MouthPress_L" : ["MouthPress_L", 1],
        "MouthPress_R" : ["MouthPress_R", 1],
        "MouthPressLeft" : ["MouthPress_L", 1],
        "MouthPressRight" : ["MouthPress_R", 1],
        "MouthStretch_L" : ["MouthStretch_L", 1],
        "MouthStretch_R" : ["MouthStretch_R", 1],
        "MouthStretchLeft" : ["MouthStretch_L", 1],
        "MouthStretchRight" : ["MouthStretch_R", 1],
        "TongueOut" : ["TongueOut", 1]
    }
}
