{
    "name" : "Genesis9",
    "bones" : {
        "hip" : {
            "angle" : 0,
            "orientation" : [0,0,0],
            "head" : [0,97.137,0.48654],
            "normal" : [0,0,0],
            "rotmode" : "YZX",
            "restrot" : [0,0,0],
            "axes" : [0,1,2],
            "flips" : [1,-1,-1],
            "loclocks" : [false,false,false],
            "rotlocks" : [false,false,false]
        },
        "pelvis" : {
            "angle" : 0,
            "orientation" : [0,0,0],
            "head" : [0,98.984,-0.28],
            "normal" : [0,0,0],
            "rotmode" : "YZX",
            "restrot" : [0,0,0],
            "axes" : [0,1,2],
            "flips" : [1,-1,-1],
            "loclocks" : [true,true,true],
            "rotlocks" : [false,false,false]
        },
        "l_thigh" : {
            "angle" : 0,
            "orientation" : [1.9217,4.9505,2.4786],
            "head" : [7.6417,88.671,-0.37622],
            "normal" : [0,0,0],
            "rotmode" : "YZX",
            "restrot" : [0,0,0],
            "axes" : [0,1,2],
            "flips" : [1,-1,-1],
            "loclocks" : [true,true,true],
            "rotlocks" : [false,false,false]
        },
        "l_shin" : {
            "angle" : 0,
            "orientation" : [4.006,6.8178,2.4759],
            "head" : [9.3411,48.194,-1.7809],
            "normal" : [0,0,0],
            "rotmode" : "YZX",
            "restrot" : [0,0,0],
            "axes" : [0,1,2],
            "flips" : [1,-1,-1],
            "loclocks" : [true,true,true],
            "rotlocks" : [false,false,false]
        },
        "l_foot" : {
            "angle" : 0,
            "orientation" : [20.846,14.13,0.8758],
            "head" : [11.006,6.4498,-4.6479],
            "normal" : [0,0,0],
            "rotmode" : "ZYX",
            "restrot" : [0,0,0],
            "axes" : [0,2,1],
            "flips" : [1,-1,1],
            "loclocks" : [true,true,true],
            "rotlocks" : [false,false,false]
        },
        "l_toes" : {
            "angle" : 0,
            "orientation" : [0,14.13,0.88],
            "head" : [14.375,1.6727,8.2517],
            "normal" : [0,0,0],
            "rotmode" : "ZYX",
            "restrot" : [0,0,0],
            "axes" : [0,2,1],
            "flips" : [1,-1,1],
            "loclocks" : [true,true,true],
            "rotlocks" : [false,false,true]
        },
        "l_bigtoe1" : {
            "angle" : 0,
            "orientation" : [10.861,18.105,1.2596],
            "head" : [11.594,2.0331,9.4099],
            "normal" : [0,0,0],
            "rotmode" : "ZYX",
            "restrot" : [0,0,0],
            "axes" : [0,2,1],
            "flips" : [1,-1,1],
            "loclocks" : [true,true,true],
            "rotlocks" : [false,false,false]
        },
        "l_bigtoe2" : {
            "angle" : 0,
            "orientation" : [10.098,17.676,1.2596],
            "head" : [12.391,1.5304,11.956],
            "normal" : [0,0,0],
            "rotmode" : "ZYX",
            "restrot" : [0,0,0],
            "axes" : [0,2,1],
            "flips" : [1,-1,1],
            "loclocks" : [true,true,true],
            "rotlocks" : [false,true,true]
        },
        "l_indextoe1" : {
            "angle" : 0,
            "orientation" : [10.394,14.902,1.2306],
            "head" : [13.676,2.3497,9.2692],
            "normal" : [0,0,0],
            "rotmode" : "ZYX",
            "restrot" : [0,0,0],
            "axes" : [0,2,1],
            "flips" : [1,-1,1],
            "loclocks" : [true,true,true],
            "rotlocks" : [false,false,false]
        },
        "l_indextoe2" : {
            "angle" : 0,
            "orientation" : [22.031,12.715,1.2306],
            "head" : [14.247,1.9774,11.352],
            "normal" : [0,0,0],
            "rotmode" : "ZYX",
            "restrot" : [0,0,0],
            "axes" : [0,2,1],
            "flips" : [1,-1,1],
            "loclocks" : [true,true,true],
            "rotlocks" : [false,true,true]
        },
        "l_midtoe1" : {
            "angle" : 0,
            "orientation" : [13.212,11.888,1.1252],
            "head" : [15.049,2.3487,9.025],
            "normal" : [0,0,0],
            "rotmode" : "ZYX",
            "restrot" : [0,0,0],
            "axes" : [0,2,1],
            "flips" : [1,-1,1],
            "loclocks" : [true,true,true],
            "rotlocks" : [false,false,false]
        },
        "l_midtoe2" : {
            "angle" : 0,
            "orientation" : [26.317,11.648,1.1252],
            "head" : [15.46,1.9292,10.808],
            "normal" : [0,0,0],
            "rotmode" : "ZYX",
            "restrot" : [0,0,0],
            "axes" : [0,2,1],
            "flips" : [1,-1,1],
            "loclocks" : [true,true,true],
            "rotlocks" : [false,true,true]
        },
        "l_ringtoe1" : {
            "angle" : 0,
            "orientation" : [13.339,15.685,-1.6596],
            "head" : [16.046,2.0047,8.347],
            "normal" : [0,0,0],
            "rotmode" : "ZYX",
            "restrot" : [0,0,0],
            "axes" : [0,2,1],
            "flips" : [1,-1,1],
            "loclocks" : [true,true,true],
            "rotlocks" : [false,false,false]
        },
        "l_ringtoe2" : {
            "angle" : 0,
            "orientation" : [27.741,12.955,-1.6596],
            "head" : [16.433,1.6328,9.8596],
            "normal" : [0,0,0],
            "rotmode" : "ZYX",
            "restrot" : [0,0,0],
            "axes" : [0,2,1],
            "flips" : [1,-1,1],
            "loclocks" : [true,true,true],
            "rotlocks" : [false,true,true]
        },
        "l_pinkytoe1" : {
            "angle" : 0,
            "orientation" : [16.065,6.0628,-5.8048],
            "head" : [17.293,1.7507,7.5472],
            "normal" : [0,0,0],
            "rotmode" : "ZYX",
            "restrot" : [0,0,0],
            "axes" : [0,2,1],
            "flips" : [1,-1,1],
            "loclocks" : [true,true,true],
            "rotlocks" : [false,false,false]
        },
        "l_pinkytoe2" : {
            "angle" : 0,
            "orientation" : [28.783,4.904,-5.8048],
            "head" : [17.367,1.4566,8.5472],
            "normal" : [0,0,0],
            "rotmode" : "ZYX",
            "restrot" : [0,0,0],
            "axes" : [0,2,1],
            "flips" : [1,-1,1],
            "loclocks" : [true,true,true],
            "rotlocks" : [false,true,true]
        },
        "l_metatarsal" : {
            "angle" : 0,
            "orientation" : [20.846,14.13,0.8758],
            "head" : [11.069,6.3615,-4.3922],
            "normal" : [0,0,0],
            "rotmode" : "ZYX",
            "restrot" : [0,0,0],
            "axes" : [0,2,1],
            "flips" : [1,-1,1],
            "loclocks" : [true,true,true],
            "rotlocks" : [false,false,false]
        },
        "l_thightwist1" : {
            "angle" : 0,
            "orientation" : [1.9217,4.9505,2.4786],
            "head" : [8.1692,75.608,-0.81324],
            "normal" : [0,0,0],
            "rotmode" : "YZX",
            "restrot" : [0,0,0],
            "axes" : [0,1,2],
            "flips" : [1,1,-1],
            "loclocks" : [true,true,true],
            "rotlocks" : [true,false,true]
        },
        "l_thightwist2" : {
            "angle" : 0,
            "orientation" : [1.9217,4.9505,2.4786],
            "head" : [8.7323,61.664,-1.2797],
            "normal" : [0,0,0],
            "rotmode" : "YZX",
            "restrot" : [0,0,0],
            "axes" : [0,1,2],
            "flips" : [1,1,-1],
            "loclocks" : [true,true,true],
            "rotlocks" : [true,false,true]
        },
        "r_thigh" : {
            "angle" : 0,
            "orientation" : [1.9217,-4.9505,-2.4786],
            "head" : [-7.6417,88.671,-0.37622],
            "normal" : [0,0,0],
            "rotmode" : "YZX",
            "restrot" : [0,0,0],
            "axes" : [0,1,2],
            "flips" : [1,-1,-1],
            "loclocks" : [true,true,true],
            "rotlocks" : [false,false,false]
        },
        "r_shin" : {
            "angle" : 0,
            "orientation" : [4.006,-6.8178,-2.4759],
            "head" : [-9.3411,48.194,-1.7809],
            "normal" : [0,0,0],
            "rotmode" : "YZX",
            "restrot" : [0,0,0],
            "axes" : [0,1,2],
            "flips" : [1,-1,-1],
            "loclocks" : [true,true,true],
            "rotlocks" : [false,false,false]
        },
        "r_foot" : {
            "angle" : 0,
            "orientation" : [20.846,-14.13,-0.8758],
            "head" : [-11.006,6.4498,-4.6479],
            "normal" : [0,0,0],
            "rotmode" : "ZYX",
            "restrot" : [0,0,0],
            "axes" : [0,2,1],
            "flips" : [1,-1,1],
            "loclocks" : [true,true,true],
            "rotlocks" : [false,false,false]
        },
        "r_toes" : {
            "angle" : 0,
            "orientation" : [0,-14.13,-0.88],
            "head" : [-14.375,1.6727,8.2517],
            "normal" : [0,0,0],
            "rotmode" : "ZYX",
            "restrot" : [0,0,0],
            "axes" : [0,2,1],
            "flips" : [1,-1,1],
            "loclocks" : [true,true,true],
            "rotlocks" : [false,false,true]
        },
        "r_bigtoe1" : {
            "angle" : 0,
            "orientation" : [10.861,-18.105,-1.2596],
            "head" : [-11.594,2.0331,9.4099],
            "normal" : [0,0,0],
            "rotmode" : "ZYX",
            "restrot" : [0,0,0],
            "axes" : [0,2,1],
            "flips" : [1,-1,1],
            "loclocks" : [true,true,true],
            "rotlocks" : [false,false,false]
        },
        "r_bigtoe2" : {
            "angle" : 0,
            "orientation" : [10.098,-17.676,-1.2596],
            "head" : [-12.391,1.5304,11.956],
            "normal" : [0,0,0],
            "rotmode" : "ZYX",
            "restrot" : [0,0,0],
            "axes" : [0,2,1],
            "flips" : [1,-1,1],
            "loclocks" : [true,true,true],
            "rotlocks" : [false,true,true]
        },
        "r_indextoe1" : {
            "angle" : 0,
            "orientation" : [10.394,-14.902,-1.2306],
            "head" : [-13.676,2.3497,9.2692],
            "normal" : [0,0,0],
            "rotmode" : "ZYX",
            "restrot" : [0,0,0],
            "axes" : [0,2,1],
            "flips" : [-1,-1,1],
            "loclocks" : [true,true,true],
            "rotlocks" : [false,false,false]
        },
        "r_indextoe2" : {
            "angle" : 0,
            "orientation" : [22.031,-12.715,-1.2306],
            "head" : [-14.247,1.9774,11.352],
            "normal" : [0,0,0],
            "rotmode" : "ZYX",
            "restrot" : [0,0,0],
            "axes" : [0,2,1],
            "flips" : [-1,-1,1],
            "loclocks" : [true,true,true],
            "rotlocks" : [false,true,true]
        },
        "r_midtoe1" : {
            "angle" : 0,
            "orientation" : [13.212,-11.888,-1.1252],
            "head" : [-15.049,2.3487,9.025],
            "normal" : [0,0,0],
            "rotmode" : "ZYX",
            "restrot" : [0,0,0],
            "axes" : [0,2,1],
            "flips" : [-1,-1,1],
            "loclocks" : [true,true,true],
            "rotlocks" : [false,false,false]
        },
        "r_midtoe2" : {
            "angle" : 0,
            "orientation" : [26.317,-11.648,-1.1252],
            "head" : [-15.46,1.9292,10.808],
            "normal" : [0,0,0],
            "rotmode" : "ZYX",
            "restrot" : [0,0,0],
            "axes" : [0,2,1],
            "flips" : [-1,-1,1],
            "loclocks" : [true,true,true],
            "rotlocks" : [false,true,true]
        },
        "r_ringtoe1" : {
            "angle" : 0,
            "orientation" : [13.339,-15.685,1.6596],
            "head" : [-16.046,2.0047,8.347],
            "normal" : [0,0,0],
            "rotmode" : "ZYX",
            "restrot" : [0,0,0],
            "axes" : [0,2,1],
            "flips" : [-1,-1,1],
            "loclocks" : [true,true,true],
            "rotlocks" : [false,false,false]
        },
        "r_ringtoe2" : {
            "angle" : 0,
            "orientation" : [27.741,-12.955,1.6596],
            "head" : [-16.433,1.6328,9.8596],
            "normal" : [0,0,0],
            "rotmode" : "ZYX",
            "restrot" : [0,0,0],
            "axes" : [0,2,1],
            "flips" : [-1,-1,1],
            "loclocks" : [true,true,true],
            "rotlocks" : [false,true,true]
        },
        "r_pinkytoe1" : {
            "angle" : 0,
            "orientation" : [16.065,-6.0628,5.8048],
            "head" : [-17.293,1.7507,7.5472],
            "normal" : [0,0,0],
            "rotmode" : "ZYX",
            "restrot" : [0,0,0],
            "axes" : [0,2,1],
            "flips" : [-1,-1,1],
            "loclocks" : [true,true,true],
            "rotlocks" : [false,false,false]
        },
        "r_pinkytoe2" : {
            "angle" : 0,
            "orientation" : [28.783,-4.904,5.8048],
            "head" : [-17.367,1.4566,8.5472],
            "normal" : [0,0,0],
            "rotmode" : "ZYX",
            "restrot" : [0,0,0],
            "axes" : [0,2,1],
            "flips" : [-1,-1,1],
            "loclocks" : [true,true,true],
            "rotlocks" : [false,true,true]
        },
        "r_metatarsal" : {
            "angle" : 0,
            "orientation" : [20.846,-14.13,-0.8758],
            "head" : [-11.069,6.3615,-4.3922],
            "normal" : [0,0,0],
            "rotmode" : "ZYX",
            "restrot" : [0,0,0],
            "axes" : [0,2,1],
            "flips" : [1,-1,1],
            "loclocks" : [true,true,true],
            "rotlocks" : [false,false,false]
        },
        "r_thightwist1" : {
            "angle" : 0,
            "orientation" : [1.9217,-4.9505,-2.4786],
            "head" : [-8.1692,75.608,-0.81324],
            "normal" : [0,0,0],
            "rotmode" : "YZX",
            "restrot" : [0,0,0],
            "axes" : [0,1,2],
            "flips" : [1,1,-1],
            "loclocks" : [true,true,true],
            "rotlocks" : [true,false,true]
        },
        "r_thightwist2" : {
            "angle" : 0,
            "orientation" : [1.9217,-4.9505,-2.4786],
            "head" : [-8.7323,61.664,-1.2797],
            "normal" : [0,0,0],
            "rotmode" : "YZX",
            "restrot" : [0,0,0],
            "axes" : [0,1,2],
            "flips" : [1,1,-1],
            "loclocks" : [true,true,true],
            "rotlocks" : [true,false,true]
        },
        "spine1" : {
            "angle" : 0,
            "orientation" : [0,0,0],
            "head" : [0,98.934,-0.78],
            "normal" : [0,0,0],
            "rotmode" : "YZX",
            "restrot" : [0,0,0],
            "axes" : [0,1,2],
            "flips" : [1,1,1],
            "loclocks" : [true,true,true],
            "rotlocks" : [false,false,false]
        },
        "spine2" : {
            "angle" : 0,
            "orientation" : [0,0,0],
            "head" : [0,106.82,-1.1],
            "normal" : [0,0,0],
            "rotmode" : "YZX",
            "restrot" : [0,0,0],
            "axes" : [0,1,2],
            "flips" : [1,1,1],
            "loclocks" : [true,true,true],
            "rotlocks" : [false,false,false]
        },
        "spine3" : {
            "angle" : 0,
            "orientation" : [0,0,0],
            "head" : [0,114.33,-2.26],
            "normal" : [0,0,0],
            "rotmode" : "YZX",
            "restrot" : [0,0,0],
            "axes" : [0,1,2],
            "flips" : [1,1,1],
            "loclocks" : [true,true,true],
            "rotlocks" : [false,false,false]
        },
        "spine4" : {
            "angle" : 0,
            "orientation" : [0,0,0],
            "head" : [0,126.81,-3.4909],
            "normal" : [0,0,0],
            "rotmode" : "YZX",
            "restrot" : [0,0,0],
            "axes" : [0,1,2],
            "flips" : [1,1,1],
            "loclocks" : [true,true,true],
            "rotlocks" : [false,false,false]
        },
        "l_shoulder" : {
            "angle" : 0,
            "orientation" : [0.053704,3.5104,1.7524],
            "head" : [3.453,135.47,-3.6182],
            "normal" : [0,0,0],
            "rotmode" : "XYZ",
            "restrot" : [0,0,0],
            "axes" : [1,2,0],
            "flips" : [1,1,1],
            "loclocks" : [true,true,true],
            "rotlocks" : [false,false,false]
        },
        "l_upperarm" : {
            "angle" : 0,
            "orientation" : [1.228,-1.1531,-47.92],
            "head" : [16.184,134.73,-4.4294],
            "normal" : [0,0,0],
            "rotmode" : "XYZ",
            "restrot" : [0,0,0],
            "axes" : [1,0,2],
            "flips" : [1,-1,1],
            "loclocks" : [true,true,true],
            "rotlocks" : [false,false,false]
        },
        "l_forearm" : {
            "angle" : 0,
            "orientation" : [1.1561,-13.924,-42.156],
            "head" : [32.991,116.56,-3.8928],
            "normal" : [0,0,0],
            "rotmode" : "XZY",
            "restrot" : [0,0,0],
            "axes" : [1,0,2],
            "flips" : [1,-1,1],
            "loclocks" : [true,true,true],
            "rotlocks" : [false,false,true]
        },
        "l_hand" : {
            "angle" : 0,
            "orientation" : [1.16,-13.92,-42.16],
            "head" : [51.542,99.775,2.3062],
            "normal" : [0,0,0],
            "rotmode" : "XYZ",
            "restrot" : [0,0,0],
            "axes" : [1,0,2],
            "flips" : [1,-1,1],
            "loclocks" : [true,true,true],
            "rotlocks" : [false,false,false]
        },
        "l_hand_anchor" : {
            "angle" : 0,
            "orientation" : [0,0,41.72],
            "head" : [54.13,93.1,2.82],
            "normal" : [0,0,0],
            "rotmode" : "ZYX",
            "restrot" : [0,0,0],
            "axes" : [0,2,1],
            "flips" : [1,-1,1],
            "loclocks" : [false,false,false],
            "rotlocks" : [false,false,false]
        },
        "l_thumb1" : {
            "angle" : 0,
            "orientation" : [-15.367,-53.367,-68.198],
            "head" : [51.74,97.888,4.081],
            "normal" : [0,0,0],
            "rotmode" : "XZY",
            "restrot" : [0,0,0],
            "axes" : [1,0,2],
            "flips" : [1,1,-1],
            "loclocks" : [true,true,true],
            "rotlocks" : [false,false,false]
        },
        "l_thumb2" : {
            "angle" : 0,
            "orientation" : [-20.792,-31.946,-70.011],
            "head" : [52.613,95.742,7.4144],
            "normal" : [0,0,0],
            "rotmode" : "XZY",
            "restrot" : [0,0,0],
            "axes" : [1,0,2],
            "flips" : [1,1,-1],
            "loclocks" : [true,true,true],
            "rotlocks" : [false,true,true]
        },
        "l_thumb3" : {
            "angle" : 0,
            "orientation" : [-24.047,-43.329,-63.299],
            "head" : [53.466,93.429,8.9695],
            "normal" : [0,0,0],
            "rotmode" : "XZY",
            "restrot" : [0,0,0],
            "axes" : [1,0,2],
            "flips" : [1,1,-1],
            "loclocks" : [true,true,true],
            "rotlocks" : [false,true,true]
        },
        "l_indexmetacarpal" : {
            "angle" : 0,
            "orientation" : [1.719,-16.038,-48.378],
            "head" : [51.864,99.464,3.5818],
            "normal" : [0,0,0],
            "rotmode" : "XYZ",
            "restrot" : [0,0,0],
            "axes" : [1,2,0],
            "flips" : [1,-1,-1],
            "loclocks" : [true,true,true],
            "rotlocks" : [false,true,false]
        },
        "l_index1" : {
            "angle" : 0,
            "orientation" : [3.3621,-8.2891,-50.944],
            "head" : [56.718,94.013,5.7725],
            "normal" : [0,0,0],
            "rotmode" : "XYZ",
            "restrot" : [0,0,0],
            "axes" : [1,2,0],
            "flips" : [1,-1,-1],
            "loclocks" : [true,true,true],
            "rotlocks" : [false,false,false]
        },
        "l_index2" : {
            "angle" : 0,
            "orientation" : [1.463,-5.8105,-51.222],
            "head" : [59.161,91.109,6.3126],
            "normal" : [0,0,0],
            "rotmode" : "XYZ",
            "restrot" : [0,0,0],
            "axes" : [1,2,0],
            "flips" : [1,-1,-1],
            "loclocks" : [true,true,true],
            "rotlocks" : [false,true,true]
        },
        "l_index3" : {
            "angle" : 0,
            "orientation" : [1.459,-5.2711,-52.484],
            "head" : [60.384,89.475,6.5309],
            "normal" : [0,0,0],
            "rotmode" : "XYZ",
            "restrot" : [0,0,0],
            "axes" : [1,2,0],
            "flips" : [1,-1,-1],
            "loclocks" : [true,true,true],
            "rotlocks" : [false,true,true]
        },
        "l_midmetacarpal" : {
            "angle" : 0,
            "orientation" : [1.3923,-7.4783,-47.252],
            "head" : [52.112,99.328,2.7263],
            "normal" : [0,0,0],
            "rotmode" : "XYZ",
            "restrot" : [0,0,0],
            "axes" : [1,2,0],
            "flips" : [1,-1,-1],
            "loclocks" : [true,true,true],
            "rotlocks" : [false,true,false]
        },
        "l_mid1" : {
            "angle" : 0,
            "orientation" : [1.8237,-4.0061,-47.74],
            "head" : [57.21,93.829,3.6996],
            "normal" : [0,0,0],
            "rotmode" : "XYZ",
            "restrot" : [0,0,0],
            "axes" : [1,2,0],
            "flips" : [1,-1,-1],
            "loclocks" : [true,true,true],
            "rotlocks" : [false,false,false]
        },
        "l_mid2" : {
            "angle" : 0,
            "orientation" : [1.4739,-4.0669,-53.946],
            "head" : [60.066,90.707,4.0114],
            "normal" : [0,0,0],
            "rotmode" : "XYZ",
            "restrot" : [0,0,0],
            "axes" : [1,2,0],
            "flips" : [1,-1,-1],
            "loclocks" : [true,true,true],
            "rotlocks" : [false,true,true]
        },
        "l_mid3" : {
            "angle" : 0,
            "orientation" : [1.2028,-2.3196,-47.019],
            "head" : [61.625,88.601,4.2231],
            "normal" : [0,0,0],
            "rotmode" : "XYZ",
            "restrot" : [0,0,0],
            "axes" : [1,2,0],
            "flips" : [1,-1,-1],
            "loclocks" : [true,true,true],
            "rotlocks" : [false,true,true]
        },
        "l_ringmetacarpal" : {
            "angle" : 0,
            "orientation" : [1.1372,-1.0179,-49.218],
            "head" : [52.236,99.32,1.7249],
            "normal" : [0,0,0],
            "rotmode" : "XYZ",
            "restrot" : [0,0,0],
            "axes" : [1,2,0],
            "flips" : [1,-1,-1],
            "loclocks" : [true,true,true],
            "rotlocks" : [false,true,false]
        },
        "l_ring1" : {
            "angle" : 0,
            "orientation" : [1.7018,0.89403,-49.961],
            "head" : [56.846,94.082,1.862],
            "normal" : [0,0,0],
            "rotmode" : "XYZ",
            "restrot" : [0,0,0],
            "axes" : [1,2,0],
            "flips" : [1,-1,-1],
            "loclocks" : [true,true,true],
            "rotlocks" : [false,false,false]
        },
        "l_ring2" : {
            "angle" : 0,
            "orientation" : [3.5229,1.0852,-50.299],
            "head" : [59.41,91.024,1.7978],
            "normal" : [0,0,0],
            "rotmode" : "XYZ",
            "restrot" : [0,0,0],
            "axes" : [1,2,0],
            "flips" : [1,-1,-1],
            "loclocks" : [true,true,true],
            "rotlocks" : [false,true,true]
        },
        "l_ring3" : {
            "angle" : 0,
            "orientation" : [1.1156,1.0613,-49.831],
            "head" : [60.759,89.323,1.7717],
            "normal" : [0,0,0],
            "rotmode" : "XYZ",
            "restrot" : [0,0,0],
            "axes" : [1,2,0],
            "flips" : [1,-1,-1],
            "loclocks" : [true,true,true],
            "rotlocks" : [false,true,true]
        },
        "l_pinkymetacarpal" : {
            "angle" : 0,
            "orientation" : [0.69556,6.7459,-54.282],
            "head" : [52.298,99.341,0.76336],
            "normal" : [0,0,0],
            "rotmode" : "XYZ",
            "restrot" : [0,0,0],
            "axes" : [1,2,0],
            "flips" : [1,-1,-1],
            "loclocks" : [true,true,true],
            "rotlocks" : [false,true,false]
        },
        "l_pinky1" : {
            "angle" : 0,
            "orientation" : [2.035,4.4946,-49.257],
            "head" : [56.062,94.06,-0.050542],
            "normal" : [0,0,0],
            "rotmode" : "XYZ",
            "restrot" : [0,0,0],
            "axes" : [1,2,0],
            "flips" : [1,-1,-1],
            "loclocks" : [true,true,true],
            "rotlocks" : [false,false,false]
        },
        "l_pinky2" : {
            "angle" : 0,
            "orientation" : [-1.0832,5.2358,-48.801],
            "head" : [57.857,91.942,-0.25865],
            "normal" : [0,0,0],
            "rotmode" : "XYZ",
            "restrot" : [0,0,0],
            "axes" : [1,2,0],
            "flips" : [1,-1,-1],
            "loclocks" : [true,true,true],
            "rotlocks" : [false,true,true]
        },
        "l_pinky3" : {
            "angle" : 0,
            "orientation" : [-2.9305,5.1928,-49.038],
            "head" : [58.937,90.654,-0.40987],
            "normal" : [0,0,0],
            "rotmode" : "XYZ",
            "restrot" : [0,0,0],
            "axes" : [1,2,0],
            "flips" : [1,-1,-1],
            "loclocks" : [true,true,true],
            "rotlocks" : [false,true,true]
        },
        "l_forearmtwist1" : {
            "angle" : 0,
            "orientation" : [1.1561,-13.924,-42.156],
            "head" : [37.225,112.73,-2.4771],
            "normal" : [0,0,0],
            "rotmode" : "XZY",
            "restrot" : [0,0,0],
            "axes" : [1,0,2],
            "flips" : [1,1,1],
            "loclocks" : [true,true,true],
            "rotlocks" : [true,false,true]
        },
        "l_forearmtwist2" : {
            "angle" : 0,
            "orientation" : [1.1561,-13.924,-42.156],
            "head" : [44.776,105.89,0.048056],
            "normal" : [0,0,0],
            "rotmode" : "XZY",
            "restrot" : [0,0,0],
            "axes" : [1,0,2],
            "flips" : [1,1,1],
            "loclocks" : [true,true,true],
            "rotlocks" : [true,false,true]
        },
        "l_upperarmtwist1" : {
            "angle" : 0,
            "orientation" : [1.228,-1.1531,-47.92],
            "head" : [19.354,131.21,-4.2413],
            "normal" : [0,0,0],
            "rotmode" : "XYZ",
            "restrot" : [0,0,0],
            "axes" : [1,0,2],
            "flips" : [1,1,1],
            "loclocks" : [true,true,true],
            "rotlocks" : [true,false,true]
        },
        "l_upperarmtwist2" : {
            "angle" : 0,
            "orientation" : [1.228,-1.1531,-47.92],
            "head" : [25.276,124.87,-4.0752],
            "normal" : [0,0,0],
            "rotmode" : "XYZ",
            "restrot" : [0,0,0],
            "axes" : [1,0,2],
            "flips" : [1,1,1],
            "loclocks" : [true,true,true],
            "rotlocks" : [true,false,true]
        },
        "r_shoulder" : {
            "angle" : 0,
            "orientation" : [0.053704,-3.5104,-1.7524],
            "head" : [-3.453,135.47,-3.6182],
            "normal" : [0,0,0],
            "rotmode" : "XYZ",
            "restrot" : [0,0,0],
            "axes" : [1,2,0],
            "flips" : [-1,1,-1],
            "loclocks" : [true,true,true],
            "rotlocks" : [false,false,false]
        },
        "r_upperarm" : {
            "angle" : 0,
            "orientation" : [1.228,1.1531,47.92],
            "head" : [-16.184,134.73,-4.4294],
            "normal" : [0,0,0],
            "rotmode" : "XYZ",
            "restrot" : [0,0,0],
            "axes" : [1,0,2],
            "flips" : [-1,1,1],
            "loclocks" : [true,true,true],
            "rotlocks" : [false,false,false]
        },
        "r_forearm" : {
            "angle" : 0,
            "orientation" : [1.1561,13.924,42.156],
            "head" : [-32.991,116.56,-3.8928],
            "normal" : [0,0,0],
            "rotmode" : "XZY",
            "restrot" : [0,0,0],
            "axes" : [1,0,2],
            "flips" : [-1,1,1],
            "loclocks" : [true,true,true],
            "rotlocks" : [false,false,true]
        },
        "r_hand" : {
            "angle" : 0,
            "orientation" : [1.16,13.92,42.16],
            "head" : [-51.542,99.775,2.3062],
            "normal" : [0,0,0],
            "rotmode" : "XYZ",
            "restrot" : [0,0,0],
            "axes" : [1,0,2],
            "flips" : [-1,1,1],
            "loclocks" : [true,true,true],
            "rotlocks" : [false,false,false]
        },
        "r_hand_anchor" : {
            "angle" : 0,
            "orientation" : [0,0,-41.72],
            "head" : [-54.13,93.1,2.82],
            "normal" : [0,0,0],
            "rotmode" : "ZYX",
            "restrot" : [0,0,0],
            "axes" : [0,2,1],
            "flips" : [-1,-1,1],
            "loclocks" : [false,false,false],
            "rotlocks" : [false,false,false]
        },
        "r_thumb1" : {
            "angle" : 0,
            "orientation" : [-15.367,53.367,68.198],
            "head" : [-51.74,97.888,4.081],
            "normal" : [0,0,0],
            "rotmode" : "XZY",
            "restrot" : [0,0,0],
            "axes" : [1,0,2],
            "flips" : [-1,-1,-1],
            "loclocks" : [true,true,true],
            "rotlocks" : [false,false,false]
        },
        "r_thumb2" : {
            "angle" : 0,
            "orientation" : [-20.792,31.946,70.011],
            "head" : [-52.613,95.742,7.4144],
            "normal" : [0,0,0],
            "rotmode" : "XZY",
            "restrot" : [0,0,0],
            "axes" : [1,0,2],
            "flips" : [-1,-1,-1],
            "loclocks" : [true,true,true],
            "rotlocks" : [false,true,true]
        },
        "r_thumb3" : {
            "angle" : 0,
            "orientation" : [-24.047,43.329,63.299],
            "head" : [-53.466,93.429,8.9695],
            "normal" : [0,0,0],
            "rotmode" : "XZY",
            "restrot" : [0,0,0],
            "axes" : [1,0,2],
            "flips" : [-1,-1,-1],
            "loclocks" : [true,true,true],
            "rotlocks" : [false,true,true]
        },
        "r_indexmetacarpal" : {
            "angle" : 0,
            "orientation" : [1.719,16.038,48.378],
            "head" : [-51.864,99.464,3.5818],
            "normal" : [0,0,0],
            "rotmode" : "XYZ",
            "restrot" : [0,0,0],
            "axes" : [1,2,0],
            "flips" : [-1,-1,1],
            "loclocks" : [true,true,true],
            "rotlocks" : [false,true,false]
        },
        "r_index1" : {
            "angle" : 0,
            "orientation" : [3.3621,8.2891,50.944],
            "head" : [-56.718,94.013,5.7725],
            "normal" : [0,0,0],
            "rotmode" : "XYZ",
            "restrot" : [0,0,0],
            "axes" : [1,2,0],
            "flips" : [-1,-1,1],
            "loclocks" : [true,true,true],
            "rotlocks" : [false,false,false]
        },
        "r_index2" : {
            "angle" : 0,
            "orientation" : [1.463,5.8105,51.222],
            "head" : [-59.161,91.109,6.3126],
            "normal" : [0,0,0],
            "rotmode" : "XYZ",
            "restrot" : [0,0,0],
            "axes" : [1,2,0],
            "flips" : [-1,-1,1],
            "loclocks" : [true,true,true],
            "rotlocks" : [false,true,true]
        },
        "r_index3" : {
            "angle" : 0,
            "orientation" : [1.459,5.2711,52.484],
            "head" : [-60.384,89.475,6.5309],
            "normal" : [0,0,0],
            "rotmode" : "XYZ",
            "restrot" : [0,0,0],
            "axes" : [1,2,0],
            "flips" : [-1,-1,1],
            "loclocks" : [true,true,true],
            "rotlocks" : [false,true,true]
        },
        "r_midmetacarpal" : {
            "angle" : 0,
            "orientation" : [1.3923,7.4783,47.252],
            "head" : [-52.112,99.328,2.7263],
            "normal" : [0,0,0],
            "rotmode" : "XYZ",
            "restrot" : [0,0,0],
            "axes" : [1,2,0],
            "flips" : [-1,-1,1],
            "loclocks" : [true,true,true],
            "rotlocks" : [false,true,false]
        },
        "r_mid1" : {
            "angle" : 0,
            "orientation" : [1.8237,4.0061,47.74],
            "head" : [-57.21,93.829,3.6996],
            "normal" : [0,0,0],
            "rotmode" : "XYZ",
            "restrot" : [0,0,0],
            "axes" : [1,2,0],
            "flips" : [-1,-1,1],
            "loclocks" : [true,true,true],
            "rotlocks" : [false,false,false]
        },
        "r_mid2" : {
            "angle" : 0,
            "orientation" : [1.4739,4.0669,53.946],
            "head" : [-60.066,90.707,4.0114],
            "normal" : [0,0,0],
            "rotmode" : "XYZ",
            "restrot" : [0,0,0],
            "axes" : [1,2,0],
            "flips" : [-1,-1,1],
            "loclocks" : [true,true,true],
            "rotlocks" : [false,true,true]
        },
        "r_mid3" : {
            "angle" : 0,
            "orientation" : [1.2028,2.3196,47.019],
            "head" : [-61.625,88.601,4.2231],
            "normal" : [0,0,0],
            "rotmode" : "XYZ",
            "restrot" : [0,0,0],
            "axes" : [1,2,0],
            "flips" : [-1,-1,1],
            "loclocks" : [true,true,true],
            "rotlocks" : [false,true,true]
        },
        "r_ringmetacarpal" : {
            "angle" : 0,
            "orientation" : [1.1372,1.0179,49.218],
            "head" : [-52.236,99.32,1.7249],
            "normal" : [0,0,0],
            "rotmode" : "XYZ",
            "restrot" : [0,0,0],
            "axes" : [1,2,0],
            "flips" : [-1,-1,1],
            "loclocks" : [true,true,true],
            "rotlocks" : [false,true,false]
        },
        "r_ring1" : {
            "angle" : 0,
            "orientation" : [1.7018,-0.89403,49.961],
            "head" : [-56.846,94.082,1.862],
            "normal" : [0,0,0],
            "rotmode" : "XYZ",
            "restrot" : [0,0,0],
            "axes" : [1,2,0],
            "flips" : [-1,-1,1],
            "loclocks" : [true,true,true],
            "rotlocks" : [false,false,false]
        },
        "r_ring2" : {
            "angle" : 0,
            "orientation" : [3.5229,-1.0852,50.299],
            "head" : [-59.41,91.024,1.7978],
            "normal" : [0,0,0],
            "rotmode" : "XYZ",
            "restrot" : [0,0,0],
            "axes" : [1,2,0],
            "flips" : [-1,-1,1],
            "loclocks" : [true,true,true],
            "rotlocks" : [false,true,true]
        },
        "r_ring3" : {
            "angle" : 0,
            "orientation" : [1.1156,-1.0613,49.831],
            "head" : [-60.759,89.323,1.7717],
            "normal" : [0,0,0],
            "rotmode" : "XYZ",
            "restrot" : [0,0,0],
            "axes" : [1,2,0],
            "flips" : [-1,-1,1],
            "loclocks" : [true,true,true],
            "rotlocks" : [false,true,true]
        },
        "r_pinkymetacarpal" : {
            "angle" : 0,
            "orientation" : [0.69556,-6.7459,54.282],
            "head" : [-52.298,99.341,0.76336],
            "normal" : [0,0,0],
            "rotmode" : "XYZ",
            "restrot" : [0,0,0],
            "axes" : [1,2,0],
            "flips" : [-1,-1,1],
            "loclocks" : [true,true,true],
            "rotlocks" : [false,true,false]
        },
        "r_pinky1" : {
            "angle" : 0,
            "orientation" : [2.035,-4.4946,49.257],
            "head" : [-56.062,94.06,-0.050542],
            "normal" : [0,0,0],
            "rotmode" : "XYZ",
            "restrot" : [0,0,0],
            "axes" : [1,2,0],
            "flips" : [-1,-1,1],
            "loclocks" : [true,true,true],
            "rotlocks" : [false,false,false]
        },
        "r_pinky2" : {
            "angle" : 0,
            "orientation" : [-1.0832,-5.2358,48.801],
            "head" : [-57.857,91.942,-0.25865],
            "normal" : [0,0,0],
            "rotmode" : "XYZ",
            "restrot" : [0,0,0],
            "axes" : [1,2,0],
            "flips" : [-1,-1,1],
            "loclocks" : [true,true,true],
            "rotlocks" : [false,true,true]
        },
        "r_pinky3" : {
            "angle" : 0,
            "orientation" : [-2.9305,-5.1928,49.038],
            "head" : [-58.937,90.654,-0.40987],
            "normal" : [0,0,0],
            "rotmode" : "XYZ",
            "restrot" : [0,0,0],
            "axes" : [1,2,0],
            "flips" : [-1,-1,1],
            "loclocks" : [true,true,true],
            "rotlocks" : [false,true,true]
        },
        "r_forearmtwist1" : {
            "angle" : 0,
            "orientation" : [1.1561,13.924,42.156],
            "head" : [-37.225,112.73,-2.4771],
            "normal" : [0,0,0],
            "rotmode" : "XZY",
            "restrot" : [0,0,0],
            "axes" : [1,0,2],
            "flips" : [-1,1,1],
            "loclocks" : [true,true,true],
            "rotlocks" : [true,false,true]
        },
        "r_forearmtwist2" : {
            "angle" : 0,
            "orientation" : [1.1561,13.924,42.156],
            "head" : [-44.776,105.89,0.048056],
            "normal" : [0,0,0],
            "rotmode" : "XZY",
            "restrot" : [0,0,0],
            "axes" : [1,0,2],
            "flips" : [-1,1,1],
            "loclocks" : [true,true,true],
            "rotlocks" : [true,false,true]
        },
        "r_upperarmtwist1" : {
            "angle" : 0,
            "orientation" : [1.228,1.1531,47.92],
            "head" : [-19.354,131.21,-4.2413],
            "normal" : [0,0,0],
            "rotmode" : "XYZ",
            "restrot" : [0,0,0],
            "axes" : [1,0,2],
            "flips" : [-1,1,1],
            "loclocks" : [true,true,true],
            "rotlocks" : [true,false,true]
        },
        "r_upperarmtwist2" : {
            "angle" : 0,
            "orientation" : [1.228,1.1531,47.92],
            "head" : [-25.276,124.87,-4.0752],
            "normal" : [0,0,0],
            "rotmode" : "XYZ",
            "restrot" : [0,0,0],
            "axes" : [1,0,2],
            "flips" : [-1,1,1],
            "loclocks" : [true,true,true],
            "rotlocks" : [true,false,true]
        },
        "neck1" : {
            "angle" : 0,
            "orientation" : [8.49,0,0],
            "head" : [0,140.68,-3.0018],
            "normal" : [0,0,0],
            "rotmode" : "YZX",
            "restrot" : [0,0,0],
            "axes" : [0,1,2],
            "flips" : [1,1,1],
            "loclocks" : [true,true,true],
            "rotlocks" : [false,false,false]
        },
        "neck2" : {
            "angle" : 0,
            "orientation" : [8.49,0,0],
            "head" : [0,146.74,-0.68986],
            "normal" : [0,0,0],
            "rotmode" : "YZX",
            "restrot" : [0,0,0],
            "axes" : [0,1,2],
            "flips" : [1,1,1],
            "loclocks" : [true,true,true],
            "rotlocks" : [false,false,false]
        },
        "head" : {
            "angle" : 0,
            "orientation" : [0.69709,0,0],
            "head" : [0,153.31,-0.6061],
            "normal" : [0,0,0],
            "rotmode" : "YZX",
            "restrot" : [0,0,0],
            "axes" : [0,1,2],
            "flips" : [1,1,1],
            "loclocks" : [true,true,true],
            "rotlocks" : [false,false,false]
        },
        "upperteeth" : {
            "angle" : 0,
            "orientation" : [1.0897,0.01,0.01],
            "head" : [0,153.31,7.004],
            "normal" : [0,0,0],
            "rotmode" : "ZYX",
            "restrot" : [0,0,0],
            "axes" : [0,2,1],
            "flips" : [1,-1,1],
            "loclocks" : [false,false,false],
            "rotlocks" : [false,false,false]
        },
        "lowerjaw" : {
            "angle" : 0,
            "orientation" : [23.55,0,0],
            "head" : [0,154.5,1.99],
            "normal" : [0,0,0],
            "rotmode" : "ZYX",
            "restrot" : [0,0,0],
            "axes" : [0,2,1],
            "flips" : [1,-1,1],
            "loclocks" : [false,false,false],
            "rotlocks" : [false,true,false]
        },
        "lowerteeth" : {
            "angle" : 0,
            "orientation" : [11.556,0,0],
            "head" : [0,152.3,6.8173],
            "normal" : [0,0,0],
            "rotmode" : "ZYX",
            "restrot" : [0,0,0],
            "axes" : [0,2,1],
            "flips" : [1,-1,1],
            "loclocks" : [false,false,false],
            "rotlocks" : [false,false,false]
        },
        "tongue01" : {
            "angle" : 0,
            "orientation" : [-26.925,0,0],
            "head" : [0,151.41,5.21],
            "normal" : [0,0,0],
            "rotmode" : "ZYX",
            "restrot" : [0,0,0],
            "axes" : [0,2,1],
            "flips" : [1,-1,1],
            "loclocks" : [false,false,false],
            "rotlocks" : [false,false,false]
        },
        "tongue02" : {
            "angle" : 0,
            "orientation" : [-13.713,0,0],
            "head" : [0,151.84,6.05],
            "normal" : [0,0,0],
            "rotmode" : "ZYX",
            "restrot" : [0,0,0],
            "axes" : [0,2,1],
            "flips" : [1,-1,1],
            "loclocks" : [false,false,false],
            "rotlocks" : [false,false,false]
        },
        "tongue03" : {
            "angle" : 0,
            "orientation" : [0.85414,0,0],
            "head" : [0,152.04,6.88],
            "normal" : [0,0,0],
            "rotmode" : "ZYX",
            "restrot" : [0,0,0],
            "axes" : [0,2,1],
            "flips" : [1,-1,1],
            "loclocks" : [false,false,false],
            "rotlocks" : [false,false,false]
        },
        "tongue04" : {
            "angle" : 0,
            "orientation" : [-1.2321,0,0],
            "head" : [0,152.03,7.71],
            "normal" : [0,0,0],
            "rotmode" : "ZYX",
            "restrot" : [0,0,0],
            "axes" : [0,2,1],
            "flips" : [1,-1,1],
            "loclocks" : [false,false,false],
            "rotlocks" : [false,false,false]
        },
        "tongue05" : {
            "angle" : 0,
            "orientation" : [-10.908,0,0],
            "head" : [0,152.04,8.5],
            "normal" : [0,0,0],
            "rotmode" : "ZYX",
            "restrot" : [0,0,0],
            "axes" : [0,2,1],
            "flips" : [1,-1,1],
            "loclocks" : [false,false,false],
            "rotlocks" : [false,false,false]
        },
        "lowerfacerig" : {
            "angle" : 0,
            "orientation" : [23.55,0,0],
            "head" : [0,154.86,1.2532],
            "normal" : [0,0,0],
            "rotmode" : "ZYX",
            "restrot" : [0,0,0],
            "axes" : [0,2,1],
            "flips" : [1,-1,1],
            "loclocks" : [true,true,true],
            "rotlocks" : [true,true,true]
        },
        "l_lipcorner" : {
            "angle" : 0,
            "orientation" : [0,0,0],
            "head" : [2.9472,152.5,8.1079],
            "normal" : [0,0,0],
            "rotmode" : "ZYX",
            "restrot" : [0,0,0],
            "axes" : [0,2,1],
            "flips" : [1,-1,1],
            "loclocks" : [false,false,false],
            "rotlocks" : [false,false,false]
        },
        "l_liplower" : {
            "angle" : 0,
            "orientation" : [0,0,0],
            "head" : [1.4823,152,8.9608],
            "normal" : [0,0,0],
            "rotmode" : "ZYX",
            "restrot" : [0,0,0],
            "axes" : [0,2,1],
            "flips" : [1,-1,1],
            "loclocks" : [false,false,false],
            "rotlocks" : [false,false,false]
        },
        "liplowermiddle" : {
            "angle" : 0,
            "orientation" : [0,0,0],
            "head" : [0,151.62,9.4876],
            "normal" : [0,0,0],
            "rotmode" : "ZYX",
            "restrot" : [0,0,0],
            "axes" : [0,2,1],
            "flips" : [1,-1,1],
            "loclocks" : [false,false,false],
            "rotlocks" : [false,false,false]
        },
        "r_liplower" : {
            "angle" : 0,
            "orientation" : [0,0,0],
            "head" : [-1.4823,152,8.9608],
            "normal" : [0,0,0],
            "rotmode" : "ZYX",
            "restrot" : [0,0,0],
            "axes" : [0,2,1],
            "flips" : [1,-1,1],
            "loclocks" : [false,false,false],
            "rotlocks" : [false,false,false]
        },
        "r_lipcorner" : {
            "angle" : 0,
            "orientation" : [0,0,0],
            "head" : [-2.9472,152.5,8.1079],
            "normal" : [0,0,0],
            "rotmode" : "ZYX",
            "restrot" : [0,0,0],
            "axes" : [0,2,1],
            "flips" : [1,-1,1],
            "loclocks" : [false,false,false],
            "rotlocks" : [false,false,false]
        },
        "l_cheeklower" : {
            "angle" : 0,
            "orientation" : [0,0,0],
            "head" : [4.4,152.86,5.3179],
            "normal" : [0,0,0],
            "rotmode" : "ZYX",
            "restrot" : [0,0,0],
            "axes" : [0,2,1],
            "flips" : [1,-1,1],
            "loclocks" : [false,false,false],
            "rotlocks" : [false,false,false]
        },
        "r_cheeklower" : {
            "angle" : 0,
            "orientation" : [0,0,0],
            "head" : [-4.4,152.86,5.3179],
            "normal" : [0,0,0],
            "rotmode" : "ZYX",
            "restrot" : [0,0,0],
            "axes" : [0,2,1],
            "flips" : [1,-1,1],
            "loclocks" : [false,false,false],
            "rotlocks" : [false,false,false]
        },
        "chin" : {
            "angle" : 0,
            "orientation" : [0,0,0],
            "head" : [0,149.28,8.2912],
            "normal" : [0,0,0],
            "rotmode" : "ZYX",
            "restrot" : [0,0,0],
            "axes" : [0,2,1],
            "flips" : [1,-1,1],
            "loclocks" : [false,false,false],
            "rotlocks" : [false,false,false]
        },
        "upperfacerig" : {
            "angle" : 0,
            "orientation" : [0.69709,0,0],
            "head" : [0,153.31,-0.6061],
            "normal" : [0,0,0],
            "rotmode" : "YZX",
            "restrot" : [0,0,0],
            "axes" : [0,1,2],
            "flips" : [1,1,1],
            "loclocks" : [true,true,true],
            "rotlocks" : [true,true,true]
        },
        "l_browinner" : {
            "angle" : 0,
            "orientation" : [0,0,0],
            "head" : [2.0109,161.04,9.1327],
            "normal" : [0,0,0],
            "rotmode" : "ZYX",
            "restrot" : [0,0,0],
            "axes" : [0,2,1],
            "flips" : [1,-1,1],
            "loclocks" : [false,false,false],
            "rotlocks" : [false,false,false]
        },
        "l_browouter" : {
            "angle" : 0,
            "orientation" : [0,0,0],
            "head" : [4.1811,161.01,8.2],
            "normal" : [0,0,0],
            "rotmode" : "ZYX",
            "restrot" : [0,0,0],
            "axes" : [0,2,1],
            "flips" : [1,-1,1],
            "loclocks" : [false,false,false],
            "rotlocks" : [false,false,false]
        },
        "r_browinner" : {
            "angle" : 0,
            "orientation" : [0,0,0],
            "head" : [-2.0109,161.04,9.1327],
            "normal" : [0,0,0],
            "rotmode" : "ZYX",
            "restrot" : [0,0,0],
            "axes" : [0,2,1],
            "flips" : [1,-1,1],
            "loclocks" : [false,false,false],
            "rotlocks" : [false,false,false]
        },
        "r_browouter" : {
            "angle" : 0,
            "orientation" : [0,0,0],
            "head" : [-4.1811,161.01,8.2],
            "normal" : [0,0,0],
            "rotmode" : "ZYX",
            "restrot" : [0,0,0],
            "axes" : [0,2,1],
            "flips" : [1,-1,1],
            "loclocks" : [false,false,false],
            "rotlocks" : [false,false,false]
        },
        "centerbrow" : {
            "angle" : 0,
            "orientation" : [0,0,0],
            "head" : [0,160.77,9.7598],
            "normal" : [0,0,0],
            "rotmode" : "ZYX",
            "restrot" : [0,0,0],
            "axes" : [0,2,1],
            "flips" : [1,-1,1],
            "loclocks" : [false,false,false],
            "rotlocks" : [false,false,false]
        },
        "l_eyelidupper" : {
            "angle" : 0,
            "orientation" : [-13.114,0,0],
            "head" : [2.9757,159.11,7.375],
            "normal" : [0,0,0],
            "rotmode" : "ZXY",
            "restrot" : [0,0,0],
            "axes" : [0,2,1],
            "flips" : [1,-1,1],
            "loclocks" : [false,false,false],
            "rotlocks" : [false,false,false]
        },
        "l_eyelidlower" : {
            "angle" : 0,
            "orientation" : [-20.459,-1.5144e-06,180],
            "head" : [2.9753,159.08,7.375],
            "normal" : [0,0,0],
            "rotmode" : "ZXY",
            "restrot" : [0,0,0],
            "axes" : [0,2,1],
            "flips" : [1,-1,1],
            "loclocks" : [false,false,false],
            "rotlocks" : [false,false,false]
        },
        "r_eyelidupper" : {
            "angle" : 0,
            "orientation" : [-13.114,0,0],
            "head" : [-2.9757,159.11,7.375],
            "normal" : [0,0,0],
            "rotmode" : "ZXY",
            "restrot" : [0,0,0],
            "axes" : [0,2,1],
            "flips" : [1,-1,1],
            "loclocks" : [false,false,false],
            "rotlocks" : [false,false,false]
        },
        "r_eyelidlower" : {
            "angle" : 0,
            "orientation" : [-20.459,2.1466e-06,-180],
            "head" : [-2.9753,159.08,7.375],
            "normal" : [0,0,0],
            "rotmode" : "ZXY",
            "restrot" : [0,0,0],
            "axes" : [0,2,1],
            "flips" : [1,-1,1],
            "loclocks" : [false,false,false],
            "rotlocks" : [false,false,false]
        },
        "l_squint" : {
            "angle" : 0,
            "orientation" : [0,0,0],
            "head" : [2.5552,157.94,8.2833],
            "normal" : [0,0,0],
            "rotmode" : "ZYX",
            "restrot" : [0,0,0],
            "axes" : [0,2,1],
            "flips" : [1,-1,1],
            "loclocks" : [false,false,false],
            "rotlocks" : [false,false,false]
        },
        "r_squint" : {
            "angle" : 0,
            "orientation" : [0,0,0],
            "head" : [-2.5552,157.94,8.2833],
            "normal" : [0,0,0],
            "rotmode" : "ZYX",
            "restrot" : [0,0,0],
            "axes" : [0,2,1],
            "flips" : [1,-1,1],
            "loclocks" : [false,false,false],
            "rotlocks" : [false,false,false]
        },
        "l_cheek" : {
            "angle" : 0,
            "orientation" : [0,0,0],
            "head" : [5.0221,156.37,7.5828],
            "normal" : [0,0,0],
            "rotmode" : "ZYX",
            "restrot" : [0,0,0],
            "axes" : [0,2,1],
            "flips" : [1,-1,1],
            "loclocks" : [false,false,false],
            "rotlocks" : [false,false,false]
        },
        "r_cheek" : {
            "angle" : 0,
            "orientation" : [0,0,0],
            "head" : [-5.0221,156.37,7.5828],
            "normal" : [0,0,0],
            "rotmode" : "ZYX",
            "restrot" : [0,0,0],
            "axes" : [0,2,1],
            "flips" : [1,-1,1],
            "loclocks" : [false,false,false],
            "rotlocks" : [false,false,false]
        },
        "l_nostril" : {
            "angle" : 0,
            "orientation" : [0,0,0],
            "head" : [1.0681,155.55,9.9638],
            "normal" : [0,0,0],
            "rotmode" : "ZYX",
            "restrot" : [0,0,0],
            "axes" : [0,2,1],
            "flips" : [1,-1,1],
            "loclocks" : [false,false,false],
            "rotlocks" : [false,false,false]
        },
        "r_nostril" : {
            "angle" : 0,
            "orientation" : [0,0,0],
            "head" : [-1.0681,155.55,9.9638],
            "normal" : [0,0,0],
            "rotmode" : "ZYX",
            "restrot" : [0,0,0],
            "axes" : [0,2,1],
            "flips" : [1,-1,1],
            "loclocks" : [false,false,false],
            "rotlocks" : [false,false,false]
        },
        "lipuppermiddle" : {
            "angle" : 0,
            "orientation" : [0,0,0],
            "head" : [0,153,9.8373],
            "normal" : [0,0,0],
            "rotmode" : "ZYX",
            "restrot" : [0,0,0],
            "axes" : [0,2,1],
            "flips" : [1,-1,1],
            "loclocks" : [false,false,false],
            "rotlocks" : [false,false,false]
        },
        "l_lipupper" : {
            "angle" : 0,
            "orientation" : [0,0,0],
            "head" : [1.4838,152.79,9.2426],
            "normal" : [0,0,0],
            "rotmode" : "ZYX",
            "restrot" : [0,0,0],
            "axes" : [0,2,1],
            "flips" : [1,-1,1],
            "loclocks" : [false,false,false],
            "rotlocks" : [false,false,false]
        },
        "r_lipupper" : {
            "angle" : 0,
            "orientation" : [0,0,0],
            "head" : [-1.4838,152.79,9.2426],
            "normal" : [0,0,0],
            "rotmode" : "ZYX",
            "restrot" : [0,0,0],
            "axes" : [0,2,1],
            "flips" : [1,-1,1],
            "loclocks" : [false,false,false],
            "rotlocks" : [false,false,false]
        },
        "l_infraorbital" : {
            "angle" : 0,
            "orientation" : [0,0,0],
            "head" : [2.15,156.79,7.5828],
            "normal" : [0,0,0],
            "rotmode" : "ZYX",
            "restrot" : [0,0,0],
            "axes" : [0,2,1],
            "flips" : [1,-1,1],
            "loclocks" : [false,false,false],
            "rotlocks" : [false,false,false]
        },
        "r_infraorbital" : {
            "angle" : 0,
            "orientation" : [0,0,0],
            "head" : [-2.15,156.79,7.5828],
            "normal" : [0,0,0],
            "rotmode" : "ZYX",
            "restrot" : [0,0,0],
            "axes" : [0,2,1],
            "flips" : [1,-1,1],
            "loclocks" : [false,false,false],
            "rotlocks" : [false,false,false]
        },
        "l_eye" : {
            "angle" : 0,
            "orientation" : [0,0,180],
            "head" : [2.9753,159.09,7.375],
            "normal" : [0,0,0],
            "rotmode" : "ZXY",
            "restrot" : [0,0,0],
            "axes" : [0,2,1],
            "flips" : [1,-1,1],
            "loclocks" : [false,false,false],
            "rotlocks" : [false,false,false]
        },
        "r_eye" : {
            "angle" : 0,
            "orientation" : [0,0,-180],
            "head" : [-2.9753,159.09,7.375],
            "normal" : [0,0,0],
            "rotmode" : "ZXY",
            "restrot" : [0,0,0],
            "axes" : [0,2,1],
            "flips" : [1,-1,1],
            "loclocks" : [false,false,false],
            "rotlocks" : [false,false,false]
        },
        "l_ear" : {
            "angle" : 0,
            "orientation" : [-2.3058,59.718,-4.0154],
            "head" : [6.547,157.26,-0.21867],
            "normal" : [0,0,0],
            "rotmode" : "XYZ",
            "restrot" : [0,0,0],
            "axes" : [1,0,2],
            "flips" : [-1,-1,1],
            "loclocks" : [false,false,false],
            "rotlocks" : [false,false,false]
        },
        "r_ear" : {
            "angle" : 0,
            "orientation" : [-2.3058,-59.718,4.0154],
            "head" : [-6.547,157.26,-0.21867],
            "normal" : [0,0,0],
            "rotmode" : "XYZ",
            "restrot" : [0,0,0],
            "axes" : [1,0,2],
            "flips" : [-1,1,1],
            "loclocks" : [false,false,false],
            "rotlocks" : [false,false,false]
        },
        "l_pectoral" : {
            "angle" : 0,
            "orientation" : [-8.8443,23.08,-0.0074921],
            "head" : [4.8675,125.26,0.31684],
            "normal" : [0,0,0],
            "rotmode" : "ZYX",
            "restrot" : [0,0,0],
            "axes" : [0,2,1],
            "flips" : [1,-1,1],
            "loclocks" : [false,false,false],
            "rotlocks" : [false,false,false]
        },
        "r_pectoral" : {
            "angle" : 0,
            "orientation" : [-8.8443,-23.08,0.0074922],
            "head" : [-4.8675,125.26,0.31684],
            "normal" : [0,0,0],
            "rotmode" : "ZYX",
            "restrot" : [0,0,0],
            "axes" : [0,2,1],
            "flips" : [-1,-1,1],
            "loclocks" : [false,false,false],
            "rotlocks" : [false,false,false]
        }
    }
}
